Project1/codes/CPU.vcd
$date
	Mon Dec 28 19:22:24 2020
$end
$version
	Icarus Verilog
$end
$timescale
	1s
$end
$scope module TestBench $end
$var reg 1 ! Clk $end
$var reg 1 " Reset $end
$var reg 1 # Start $end
$var integer 32 $ counter [31:0] $end
$var integer 32 % flush [31:0] $end
$var integer 32 & i [31:0] $end
$var integer 32 ' outfile [31:0] $end
$var integer 32 ( stall [31:0] $end
$scope module CPU $end
$var wire 1 ) Hazard_Detection_Flush $end
$var wire 1 * ID_NoOp $end
$var wire 1 ! clk_i $end
$var wire 1 " rst_i $end
$var wire 1 # start_i $end
$var wire 32 + WB_write_data [31:0] $end
$var wire 5 , WB_RDaddr [4:0] $end
$var wire 32 - WB_Data_Mem_out [31:0] $end
$var wire 1 . WB_Ctrl_Reg_write $end
$var wire 1 / WB_Ctrl_Mem_to_Reg $end
$var wire 32 0 WB_ALU_rst [31:0] $end
$var wire 32 1 PC_out [31:0] $end
$var wire 32 2 PC_in [31:0] $end
$var wire 32 3 MUX_PCSrc_out [31:0] $end
$var wire 32 4 MUX_Forwarding2_out [31:0] $end
$var wire 32 5 MUX_Forwarding1_out [31:0] $end
$var wire 32 6 MEM_read_data_2 [31:0] $end
$var wire 5 7 MEM_RDaddr [4:0] $end
$var wire 32 8 MEM_Data_Mem_out [31:0] $end
$var wire 1 9 MEM_Ctrl_Reg_write $end
$var wire 1 : MEM_Ctrl_Mem_write $end
$var wire 1 ; MEM_Ctrl_Mem_to_Reg $end
$var wire 1 < MEM_Ctrl_Mem_read $end
$var wire 32 = MEM_ALU_rst [31:0] $end
$var wire 32 > IF_instruction [31:0] $end
$var wire 32 ? ID_read_data_2 [31:0] $end
$var wire 32 @ ID_read_data_1 [31:0] $end
$var wire 32 A ID_instruction [31:0] $end
$var wire 32 B ID_Sign_Extend_out [31:0] $end
$var wire 5 C ID_RS2addr [4:0] $end
$var wire 5 D ID_RS1addr [4:0] $end
$var wire 32 E ID_PC_out [31:0] $end
$var wire 1 F Hazard_Detection_Stall $end
$var wire 2 G ForwardB [1:0] $end
$var wire 2 H ForwardA [1:0] $end
$var wire 32 I EX_read_data_2 [31:0] $end
$var wire 32 J EX_read_data_1 [31:0] $end
$var wire 10 K EX_funct [9:0] $end
$var wire 32 L EX_Sign_Extend_out [31:0] $end
$var wire 5 M EX_RDaddr [4:0] $end
$var wire 1 N EX_Ctrl_Reg_write $end
$var wire 1 O EX_Ctrl_Mem_write $end
$var wire 1 P EX_Ctrl_Mem_to_Reg $end
$var wire 1 Q EX_Ctrl_Mem_read $end
$var wire 1 R EX_Ctrl_ALU_src $end
$var wire 2 S EX_Ctrl_ALU_op [1:0] $end
$var wire 32 T EX_ALU_rst [31:0] $end
$var wire 1 U Ctrl_Reg_write $end
$var wire 1 V Ctrl_PCWrite $end
$var wire 1 W Ctrl_Mem_write $end
$var wire 1 X Ctrl_Mem_to_Reg $end
$var wire 1 Y Ctrl_Mem_read $end
$var wire 1 Z Ctrl_Branch $end
$var wire 1 [ Ctrl_ALU_src $end
$var wire 2 \ Ctrl_ALU_op [1:0] $end
$var wire 32 ] Branch_Target [31:0] $end
$var wire 1 ^ ALU_zero $end
$var wire 32 _ ALU_src [31:0] $end
$var wire 3 ` ALUCtrl_out [2:0] $end
$scope module ALU $end
$var wire 32 a data2_i [31:0] $end
$var wire 32 b data1_i [31:0] $end
$var wire 3 c ALUCtrl_i [2:0] $end
$var reg 1 ^ Zero_o $end
$var reg 32 d data_o [31:0] $end
$upscope $end
$scope module ALU_Control $end
$var wire 10 e funct_i [9:0] $end
$var wire 2 f ALUOp_i [1:0] $end
$var reg 3 g ALUCtrl_o [2:0] $end
$upscope $end
$scope module Add_Branch $end
$var wire 32 h data_o [31:0] $end
$var wire 32 i data2_in [31:0] $end
$var wire 32 j data1_in [31:0] $end
$upscope $end
$scope module Add_PC $end
$var wire 32 k data2_in [31:0] $end
$var wire 32 l data_o [31:0] $end
$var wire 32 m data1_in [31:0] $end
$upscope $end
$scope module Control $end
$var wire 1 * NoOp_i $end
$var wire 7 n Op_i [6:0] $end
$var wire 1 U RegWrite_o $end
$var wire 1 X MemtoReg_o $end
$var wire 1 W MemWrite_o $end
$var wire 1 Y MemRead_o $end
$var wire 1 Z Branch_o $end
$var reg 2 o ALUOp_o [1:0] $end
$var reg 1 [ ALUSrc_o $end
$upscope $end
$scope module Data_Memory $end
$var wire 1 ! clk_i $end
$var wire 32 p data_o [31:0] $end
$var wire 32 q data_i [31:0] $end
$var wire 32 r addr_i [31:0] $end
$var wire 1 : MemWrite_i $end
$var wire 1 < MemRead_i $end
$upscope $end
$scope module EX_MEM $end
$var wire 32 s ALU_rst_i [31:0] $end
$var wire 1 ! clk_i $end
$var wire 1 # start_i $end
$var wire 32 t writeData_i [31:0] $end
$var wire 1 N RegWrite_i $end
$var wire 5 u RDaddr_i [4:0] $end
$var wire 1 P MemtoReg_i $end
$var wire 1 O MemWrite_i $end
$var wire 1 Q MemRead_i $end
$var reg 32 v ALU_rst_o [31:0] $end
$var reg 1 < MemRead_o $end
$var reg 1 : MemWrite_o $end
$var reg 1 ; MemtoReg_o $end
$var reg 5 w RDaddr_o [4:0] $end
$var reg 1 9 RegWrite_o $end
$var reg 32 x writeData_o [31:0] $end
$upscope $end
$scope module Forwarding_Unit $end
$var wire 1 9 EX_MEM_RegWrite_i $end
$var wire 5 y EX_MEM_RegisterRd_i [4:0] $end
$var wire 5 z MEM_WB_RegisterRd_i [4:0] $end
$var wire 1 . MEM_WB_RegWrite_i $end
$var wire 5 { ID_EX_RS2_i [4:0] $end
$var wire 5 | ID_EX_RS1_i [4:0] $end
$var reg 2 } ForwardA_o [1:0] $end
$var reg 2 ~ ForwardB_o [1:0] $end
$upscope $end
$scope module Hazard_Detection $end
$var wire 5 !" IF_ID_RS1_i [4:0] $end
$var wire 5 "" IF_ID_RS2_i [4:0] $end
$var wire 1 Z branch_i $end
$var wire 32 #" Registers_RS2data_i [31:0] $end
$var wire 32 $" Registers_RS1data_i [31:0] $end
$var wire 5 %" ID_EX_RegisterRd_i [4:0] $end
$var wire 1 Q ID_EX_MemRead_i $end
$var reg 1 V PCWrite_o $end
$var reg 1 F stall_o $end
$upscope $end
$scope module ID_EX $end
$var wire 2 &" ALUOp_i [1:0] $end
$var wire 1 [ ALUSrc_i $end
$var wire 1 Y MemRead_i $end
$var wire 1 W MemWrite_i $end
$var wire 1 X MemtoReg_i $end
$var wire 5 '" RDaddr_i [4:0] $end
$var wire 5 (" RS1addr_i [4:0] $end
$var wire 5 )" RS2addr_i [4:0] $end
$var wire 1 U RegWrite_i $end
$var wire 1 ! clk_i $end
$var wire 10 *" funct_i [9:0] $end
$var wire 32 +" pc_i [31:0] $end
$var wire 1 # start_i $end
$var wire 32 ," imm_i [31:0] $end
$var wire 32 -" RS2data_i [31:0] $end
$var wire 32 ." RS1data_i [31:0] $end
$var reg 2 /" ALUOp_o [1:0] $end
$var reg 1 R ALUSrc_o $end
$var reg 1 Q MemRead_o $end
$var reg 1 O MemWrite_o $end
$var reg 1 P MemtoReg_o $end
$var reg 5 0" RDaddr_o [4:0] $end
$var reg 5 1" RS1addr_o [4:0] $end
$var reg 32 2" RS1data_o [31:0] $end
$var reg 5 3" RS2addr_o [4:0] $end
$var reg 32 4" RS2data_o [31:0] $end
$var reg 1 N RegWrite_o $end
$var reg 10 5" funct_o [9:0] $end
$var reg 32 6" imm_o [31:0] $end
$var reg 32 7" pc_o [31:0] $end
$upscope $end
$scope module IF_ID $end
$var wire 1 ! clk_i $end
$var wire 1 ) flush_i $end
$var wire 1 F stall_i $end
$var wire 1 # start_i $end
$var wire 32 8" pc_i [31:0] $end
$var wire 32 9" instr_i [31:0] $end
$var reg 32 :" instr_o [31:0] $end
$var reg 32 ;" pc_o [31:0] $end
$upscope $end
$scope module Instruction_Memory $end
$var wire 32 <" instr_o [31:0] $end
$var wire 32 =" addr_i [31:0] $end
$upscope $end
$scope module MEM_WB $end
$var wire 32 >" ALU_rst_i [31:0] $end
$var wire 1 ; MemtoReg_i $end
$var wire 5 ?" RDaddr_i [4:0] $end
$var wire 32 @" ReadData_i [31:0] $end
$var wire 1 9 RegWrite_i $end
$var wire 1 ! clk_i $end
$var wire 1 # start_i $end
$var reg 32 A" ALU_rst_o [31:0] $end
$var reg 1 / MemtoReg_o $end
$var reg 5 B" RDaddr_o [4:0] $end
$var reg 32 C" ReadData_o [31:0] $end
$var reg 1 . RegWrite_o $end
$upscope $end
$scope module MUX_ALUSrc $end
$var wire 32 D" data2_i [31:0] $end
$var wire 1 R select_i $end
$var wire 32 E" data_o [31:0] $end
$var wire 32 F" data1_i [31:0] $end
$upscope $end
$scope module MUX_Forwarding_1 $end
$var wire 32 G" data1_i [31:0] $end
$var wire 32 H" data3_i [31:0] $end
$var wire 2 I" select_i [1:0] $end
$var wire 32 J" data2_i [31:0] $end
$var reg 32 K" data_o [31:0] $end
$upscope $end
$scope module MUX_Forwarding_2 $end
$var wire 32 L" data1_i [31:0] $end
$var wire 32 M" data3_i [31:0] $end
$var wire 2 N" select_i [1:0] $end
$var wire 32 O" data2_i [31:0] $end
$var reg 32 P" data_o [31:0] $end
$upscope $end
$scope module MUX_MemtoReg $end
$var wire 32 Q" data1_i [31:0] $end
$var wire 32 R" data2_i [31:0] $end
$var wire 1 / select_i $end
$var wire 32 S" data_o [31:0] $end
$upscope $end
$scope module MUX_PCSrc $end
$var wire 32 T" data1_i [31:0] $end
$var wire 32 U" data2_i [31:0] $end
$var wire 1 ) select_i $end
$var wire 32 V" data_o [31:0] $end
$upscope $end
$scope module PC $end
$var wire 1 V PCWrite_i $end
$var wire 1 ! clk_i $end
$var wire 32 W" pc_i [31:0] $end
$var wire 1 " rst_i $end
$var wire 1 # start_i $end
$var reg 32 X" pc_o [31:0] $end
$upscope $end
$scope module Registers $end
$var wire 5 Y" RDaddr_i [4:0] $end
$var wire 32 Z" RDdata_i [31:0] $end
$var wire 5 [" RS1addr_i [4:0] $end
$var wire 5 \" RS2addr_i [4:0] $end
$var wire 1 . RegWrite_i $end
$var wire 1 ! clk_i $end
$var wire 32 ]" RS2data_o [31:0] $end
$var wire 32 ^" RS1data_o [31:0] $end
$upscope $end
$scope module Sign_Extend $end
$var wire 32 _" instruction_i [31:0] $end
$var reg 32 `" data_o [31:0] $end
$upscope $end
$upscope $end
$upscope $end
$enddefinitions $end
#0
$dumpvars
b0 `"
b0 _"
b0 ^"
b0 ]"
b0 \"
b0 ["
bx Z"
b0 Y"
b0 X"
b100 W"
b100 V"
bx U"
b100 T"
bx S"
bx R"
bx Q"
b0 P"
bx O"
b0 N"
bx M"
b0 L"
b0 K"
bx J"
b0 I"
bx H"
b0 G"
b0 F"
b0 E"
bx D"
bx C"
b0 B"
bx A"
bx @"
b0 ?"
bx >"
b0 ="
b11000000000010100010011 <"
bx ;"
b0 :"
b11000000000010100010011 9"
b0 8"
bx 7"
bx 6"
bx 5"
b0 4"
bx 3"
b0 2"
bx 1"
b0 0"
bx /"
b0 ."
b0 -"
b0 ,"
bz +"
b0 *"
b0 )"
b0 ("
b0 '"
b0 &"
b0 %"
b0 $"
b0 #"
b0 ""
b0 !"
b0 ~
b0 }
bx |
bx {
b0 z
b0 y
bx x
b0 w
bx v
b0 u
b0 t
b0 s
bx r
bx q
bx p
b0 o
b0 n
b0 m
b100 l
b100 k
b0 j
bx i
bx h
bx g
bx f
bx e
b0 d
bx c
b0 b
b0 a
bx `
b0 _
0^
bx ]
b0 \
0[
0Z
0Y
0X
0W
1V
0U
b0 T
bx S
0R
xQ
xP
xO
0N
b0 M
bx L
bx K
b0 J
b0 I
b0 H
b0 G
0F
bx E
bx D
bx C
b0 B
b0 A
b0 @
b0 ?
b11000000000010100010011 >
bx =
x<
x;
x:
09
bx 8
b0 7
bx 6
b0 5
b0 4
b100 3
b100 2
b0 1
bx 0
x/
0.
bx -
b0 ,
bx +
1*
0)
b0 (
b11 '
b100000 &
b0 %
b0 $
0#
1"
1!
$end
#12
1#
0"
#25
0!
#50
1[
b11 \
b11 o
b11 &"
b100 `
b100 c
b100 g
b110 B
b110 j
b110 ,"
b110 `"
1U
b0x0x 8
b0x0x p
b0x0x @"
b1010 '"
b110 )"
b110 \"
0*
b110 ""
b10011 n
b100000000010110010011 >
b100000000010110010011 9"
b100000000010110010011 <"
b1000 3
b1000 V"
b1000 W"
b0 6
b0 q
b0 x
b0 =
b0 r
b0 v
b0 >"
b0 H"
b0 M"
b0 C
b0 {
b0 3"
b0 D
b0 |
b0 1"
b0 K
b0 e
b0 5"
b0 L
b0 6"
b0 D"
0P
0Q
0O
b0 S
b0 f
b0 /"
b11000000000010100010011 A
b11000000000010100010011 :"
b11000000000010100010011 _"
b110 ]
b110 h
b110 U"
b0 E
b0 i
b0 ;"
b1000 2
b1000 l
b1000 T"
b100 1
b100 m
b100 8"
b100 ="
b100 X"
b1 $
1!
#75
0!
#100
b110 T
b110 d
b110 s
b1 B
b1 j
b1 ,"
b1 `"
b1011 '"
b1 )"
b1 \"
b1 ""
b110 _
b110 a
b110 E"
b0 8
b0 p
b0 @"
b0x0x +
b0x0x J"
b0x0x O"
b0x0x S"
b0x0x Z"
b100000000010010010011 >
b100000000010010010011 9"
b100000000010010010011 <"
b1100 3
b1100 V"
b1100 W"
b100000000010110010011 A
b100000000010110010011 :"
b100000000010110010011 _"
b101 ]
b101 h
b101 U"
b100 E
b100 i
b100 ;"
b110 C
b110 {
b110 3"
b1010 M
b1010 u
b1010 %"
b1010 0"
b110 L
b110 6"
b110 D"
1N
1R
b11 S
b11 f
b11 /"
0:
0<
0;
b0 0
b0 A"
b0 Q"
b0x0x -
b0x0x C"
b0x0x R"
b1100 2
b1100 l
b1100 T"
b1000 1
b1000 m
b1000 8"
b1000 ="
b1000 X"
b10 $
1!
#125
0!
#150
b1 T
b1 d
b1 s
b0 +
b0 J"
b0 O"
b0 S"
b0 Z"
b1 _
b1 a
b1 E"
b1001 '"
b10101101001000010010110011 >
b10101101001000010010110011 9"
b10101101001000010010110011 <"
b10000 3
b10000 V"
b10000 W"
b0 -
b0 C"
b0 R"
0/
b1010 7
b1010 w
b1010 y
b1010 ?"
b110 =
b110 r
b110 v
b110 >"
b110 H"
b110 M"
19
b1 C
b1 {
b1 3"
b1011 M
b1011 u
b1011 %"
b1011 0"
b1 L
b1 6"
b1 D"
b100000000010010010011 A
b100000000010010010011 :"
b100000000010010010011 _"
b1001 ]
b1001 h
b1001 U"
b1000 E
b1000 i
b1000 ;"
b10000 2
b10000 l
b10000 T"
b1100 1
b1100 m
b1100 8"
b1100 ="
b1100 X"
b11 $
1!
#175
0!
#200
0[
b10 \
b10 o
b10 &"
b101011 B
b101011 j
b101011 ,"
b101011 `"
b1011 )"
b1001 ("
b1000 *"
b1011 \"
b1001 ["
b1011 ""
b1001 !"
b110011 n
b110 +
b110 J"
b110 O"
b110 S"
b110 Z"
b101011000010110010011 >
b101011000010110010011 9"
b101011000010110010011 <"
b10100 3
b10100 V"
b10100 W"
b10101101001000010010110011 A
b10101101001000010010110011 :"
b10101101001000010010110011 _"
b110111 ]
b110111 h
b110111 U"
b1100 E
b1100 i
b1100 ;"
b1001 M
b1001 u
b1001 %"
b1001 0"
b1011 7
b1011 w
b1011 y
b1011 ?"
b1 =
b1 r
b1 v
b1 >"
b1 H"
b1 M"
b1010 ,
b1010 z
b1010 B"
b1010 Y"
b110 0
b110 A"
b110 Q"
1.
b10100 2
b10100 l
b10100 T"
b10000 1
b10000 m
b10000 8"
b10000 ="
b10000 X"
b100 $
1!
#225
0!
#250
b1 4
b1 t
b1 F"
b1 P"
b1 5
b1 b
b1 K"
b1 T
b1 d
b1 s
1[
b11 \
b11 o
b11 &"
b1 G
b1 ~
b1 N"
b10 H
b10 }
b10 I"
b110 `
b110 c
b110 g
b1 B
b1 j
b1 ,"
b1 `"
b1 @
b1 $"
b1 ."
b1 ^"
1U
b1 +
b1 J"
b1 O"
b1 S"
b1 Z"
b1 _
b1 a
b1 E"
b1011 '"
b1 )"
b1011 ("
b0 *"
b1 \"
b1011 ["
b1 ""
b1011 !"
b10011 n
b1011000111000010011 >
b1011000111000010011 9"
b1011000111000010011 <"
b11000 3
b11000 V"
b11000 W"
b1011 ,
b1011 z
b1011 B"
b1011 Y"
b1 0
b1 A"
b1 Q"
b1001 7
b1001 w
b1001 y
b1001 ?"
b1011 C
b1011 {
b1011 3"
b1001 D
b1001 |
b1001 1"
b1000 K
b1000 e
b1000 5"
b101011 L
b101011 6"
b101011 D"
0R
b10 S
b10 f
b10 /"
b101011000010110010011 A
b101011000010110010011 :"
b101011000010110010011 _"
b10001 ]
b10001 h
b10001 U"
b10000 E
b10000 i
b10000 ;"
b11000 2
b11000 l
b11000 T"
b10100 1
b10100 m
b10100 8"
b10100 ="
b10100 X"
b101 $
1!
#275
0!
#300
b10 T
b10 d
b10 s
b0 4
b0 t
b0 F"
b0 P"
b0 B
b0 j
b0 ,"
b0 `"
b100 `
b100 c
b100 g
b0 G
b0 ~
b0 N"
b0 H
b0 }
b0 I"
b11100 '"
b0 )"
b0 \"
b0 ""
b11111111111101011000111010010011 >
b11111111111101011000111010010011 9"
b11111111111101011000111010010011 <"
b11100 3
b11100 V"
b11100 W"
b1011000111000010011 A
b1011000111000010011 :"
b1011000111000010011 _"
b10100 ]
b10100 h
b10100 U"
b10100 E
b10100 i
b10100 ;"
b1 C
b1 {
b1 3"
b1011 D
b1011 |
b1011 1"
b1011 M
b1011 u
b1011 %"
b1011 0"
b0 K
b0 e
b0 5"
b1 L
b1 6"
b1 D"
b1 J
b1 2"
b1 G"
1R
b11 S
b11 f
b11 /"
b1 6
b1 q
b1 x
b1001 ,
b1001 z
b1001 B"
b1001 Y"
b11100 2
b11100 l
b11100 T"
b11000 1
b11000 m
b11000 8"
b11000 ="
b11000 X"
b110 $
1!
#325
0!
#350
b10 5
b10 b
b10 K"
b10 T
b10 d
b10 s
b10 H
b10 }
b10 I"
b11111111111111111111111111111111 B
b11111111111111111111111111111111 j
b11111111111111111111111111111111 ,"
b11111111111111111111111111111111 `"
b0 _
b0 a
b0 E"
b11101 '"
b11111 )"
b1111111000 *"
b11111 \"
b11111 ""
b11111111111001011000111100010011 >
b11111111111001011000111100010011 9"
b11111111111001011000111100010011 <"
b100000 3
b100000 V"
b100000 W"
b1011 7
b1011 w
b1011 y
b1011 ?"
b0 6
b0 q
b0 x
b10 =
b10 r
b10 v
b10 >"
b10 H"
b10 M"
b0 C
b0 {
b0 3"
b11100 M
b11100 u
b11100 %"
b11100 0"
b0 L
b0 6"
b0 D"
b11111111111101011000111010010011 A
b11111111111101011000111010010011 :"
b11111111111101011000111010010011 _"
b10111 ]
b10111 h
b10111 U"
b11000 E
b11000 i
b11000 ;"
b100000 2
b100000 l
b100000 T"
b11100 1
b11100 m
b11100 8"
b11100 ="
b11100 X"
b111 $
1!
#375
0!
#400
b1 T
b1 d
b1 s
b11111111111111111111111111111110 B
b11111111111111111111111111111110 j
b11111111111111111111111111111110 ,"
b11111111111111111111111111111110 `"
b1 H
b1 }
b1 I"
b10 @
b10 $"
b10 ."
b10 ^"
b11110 '"
b11110 )"
b11110 \"
b11110 ""
b11111111111111111111111111111111 _
b11111111111111111111111111111111 a
b11111111111111111111111111111111 E"
b10 +
b10 J"
b10 O"
b10 S"
b10 Z"
b100100 3
b100100 V"
b100100 W"
b11111111111001011000111100010011 A
b11111111111001011000111100010011 :"
b11111111111001011000111100010011 _"
b11010 ]
b11010 h
b11010 U"
b11100 E
b11100 i
b11100 ;"
b11111 C
b11111 {
b11111 3"
b11101 M
b11101 u
b11101 %"
b11101 0"
b1111111000 K
b1111111000 e
b1111111000 5"
b11111111111111111111111111111111 L
b11111111111111111111111111111111 6"
b11111111111111111111111111111111 D"
b11100 7
b11100 w
b11100 y
b11100 ?"
b1011 ,
b1011 z
b1011 B"
b1011 Y"
b10 0
b10 A"
b10 Q"
b100100 2
b100100 l
b100100 T"
b100000 1
b100000 m
b100000 8"
b100000 ="
b100000 X"
b1000 $
1!
#425
0!
#450
b0 T
b0 d
b0 s
b0 H
b0 }
b0 I"
b11111111111111111111111111111110 _
b11111111111111111111111111111110 a
b11111111111111111111111111111110 E"
b101101010000010001100011 >
b101101010000010001100011 9"
b101101010000010001100011 <"
b101000 3
b101000 V"
b101000 W"
b11100 ,
b11100 z
b11100 B"
b11100 Y"
b11101 7
b11101 w
b11101 y
b11101 ?"
b1 =
b1 r
b1 v
b1 >"
b1 H"
b1 M"
b11110 C
b11110 {
b11110 3"
b11110 M
b11110 u
b11110 %"
b11110 0"
b11111111111111111111111111111110 L
b11111111111111111111111111111110 6"
b11111111111111111111111111111110 D"
b10 J
b10 2"
b10 G"
b11110 ]
b11110 h
b11110 U"
b100000 E
b100000 i
b100000 ;"
b101000 2
b101000 l
b101000 T"
b100100 1
b100100 m
b100100 8"
b100100 ="
b100100 X"
b1001 $
1!
#475
0!
#500
0[
b1 \
b1 o
b1 &"
b1000 B
b1000 j
b1000 ,"
b1000 `"
b10 G
b10 ~
b10 N"
0U
b10 ?
b10 #"
b10 -"
b10 ]"
b110 @
b110 $"
b110 ."
b110 ^"
b1000 '"
b1011 )"
b1010 ("
b0 *"
b1011 \"
b1010 ["
b1011 ""
b1010 !"
1Z
b1100011 n
b1 +
b1 J"
b1 O"
b1 S"
b1 Z"
b11111110000000000000010011100011 >
b11111110000000000000010011100011 9"
b11111110000000000000010011100011 <"
b101100 3
b101100 V"
b101100 W"
b101101010000010001100011 A
b101101010000010001100011 :"
b101101010000010001100011 _"
b101100 ]
b101100 h
b101100 U"
b100100 E
b100100 i
b100100 ;"
b11110 7
b11110 w
b11110 y
b11110 ?"
b0 =
b0 r
b0 v
b0 >"
b0 H"
b0 M"
b11101 ,
b11101 z
b11101 B"
b11101 Y"
b1 0
b1 A"
b1 Q"
b101100 2
b101100 l
b101100 T"
b101000 1
b101000 m
b101000 8"
b101000 ="
b101000 X"
b1010 $
1!
#525
0!
#550
b10 4
b10 t
b10 F"
b10 P"
b1000 T
b1000 d
b1000 s
b0 G
b0 ~
b0 N"
b110 5
b110 b
b110 K"
b11111111111111111111111111101000 B
b11111111111111111111111111101000 j
b11111111111111111111111111101000 ,"
b11111111111111111111111111101000 `"
1)
b0 ?
b0 #"
b0 -"
b0 ]"
b0 @
b0 $"
b0 ."
b0 ^"
b0 +
b0 J"
b0 O"
b0 S"
b0 Z"
b10 _
b10 a
b10 E"
b1001 '"
b0 )"
b0 ("
b1111111000 *"
b0 \"
b0 ["
b0 ""
b0 !"
b100100000010001000100011 >
b100100000010001000100011 9"
b100100000010001000100011 <"
b10000 3
b10000 V"
b10000 W"
b11110 ,
b11110 z
b11110 B"
b11110 Y"
b0 0
b0 A"
b0 Q"
b1011 C
b1011 {
b1011 3"
b1010 D
b1010 |
b1010 1"
b1000 M
b1000 u
b1000 %"
b1000 0"
b0 K
b0 e
b0 5"
b1000 L
b1000 6"
b1000 D"
b10 I
b10 4"
b10 L"
b110 J
b110 2"
b110 G"
0N
0R
b1 S
b1 f
b1 /"
b11111110000000000000010011100011 A
b11111110000000000000010011100011 :"
b11111110000000000000010011100011 _"
b10000 ]
b10000 h
b10000 U"
b101000 E
b101000 i
b101000 ;"
b110000 2
b110000 l
b110000 T"
b101100 1
b101100 m
b101100 8"
b101100 ="
b101100 X"
b1011 $
1!
#575
0!
#600
b0 T
b0 d
b0 s
b0 _
b0 a
b0 E"
b0 \
b0 o
b0 &"
b0 B
b0 j
b0 ,"
b0 `"
b0 5
b0 b
b0 K"
b0 4
b0 t
b0 F"
b0 P"
0)
b10100 3
b10100 V"
b10100 W"
b0 '"
b0 *"
1*
0Z
b0 n
b101011000010110010011 >
b101011000010110010011 9"
b101011000010110010011 <"
b0 ]
b0 h
b0 U"
b0 E
b0 i
b0 ;"
b0 A
b0 :"
b0 _"
b0 C
b0 {
b0 3"
b0 D
b0 |
b0 1"
b1001 M
b1001 u
b1001 %"
b1001 0"
b1111111000 K
b1111111000 e
b1111111000 5"
b11111111111111111111111111101000 L
b11111111111111111111111111101000 6"
b11111111111111111111111111101000 D"
b0 I
b0 4"
b0 L"
b0 J
b0 2"
b0 G"
b1000 7
b1000 w
b1000 y
b1000 ?"
b10 6
b10 q
b10 x
b1000 =
b1000 r
b1000 v
b1000 >"
b1000 H"
b1000 M"
09
b10100 2
b10100 l
b10100 T"
b10000 1
b10000 m
b10000 8"
b10000 ="
b10000 X"
b1100 $
b1 %
1!
#625
0!
#650
1[
b11 \
b11 o
b11 &"
b1 B
b1 j
b1 ,"
b1 `"
1U
b10 @
b10 $"
b10 ."
b10 ^"
b1000 +
b1000 J"
b1000 O"
b1000 S"
b1000 Z"
b1011 '"
b1 )"
b1011 ("
b1 \"
b1011 ["
0*
b1 ""
b1011 !"
b10011 n
b1011000111000010011 >
b1011000111000010011 9"
b1011000111000010011 <"
b11000 3
b11000 V"
b11000 W"
b1000 ,
b1000 z
b1000 B"
b1000 Y"
b1000 0
b1000 A"
b1000 Q"
0.
b1001 7
b1001 w
b1001 y
b1001 ?"
b0 6
b0 q
b0 x
b0 =
b0 r
b0 v
b0 >"
b0 H"
b0 M"
b0 M
b0 u
b0 %"
b0 0"
b0 K
b0 e
b0 5"
b0 L
b0 6"
b0 D"
b0 S
b0 f
b0 /"
b101011000010110010011 A
b101011000010110010011 :"
b101011000010110010011 _"
b10001 ]
b10001 h
b10001 U"
b10000 E
b10000 i
b10000 ;"
b11000 2
b11000 l
b11000 T"
b10100 1
b10100 m
b10100 8"
b10100 ="
b10100 X"
b1101 $
1!
#675
0!
#700
b11 T
b11 d
b11 s
b0 B
b0 j
b0 ,"
b0 `"
b10 5
b10 b
b10 K"
b11100 '"
b0 )"
b0 \"
b0 ""
b1 _
b1 a
b1 E"
b0 +
b0 J"
b0 O"
b0 S"
b0 Z"
b11111111111101011000111010010011 >
b11111111111101011000111010010011 9"
b11111111111101011000111010010011 <"
b11100 3
b11100 V"
b11100 W"
b1011000111000010011 A
b1011000111000010011 :"
b1011000111000010011 _"
b10100 ]
b10100 h
b10100 U"
b10100 E
b10100 i
b10100 ;"
b1 C
b1 {
b1 3"
b1011 D
b1011 |
b1011 1"
b1011 M
b1011 u
b1011 %"
b1011 0"
b1 L
b1 6"
b1 D"
b10 J
b10 2"
b10 G"
1N
1R
b11 S
b11 f
b11 /"
b0 7
b0 w
b0 y
b0 ?"
b1001 ,
b1001 z
b1001 B"
b1001 Y"
b0 0
b0 A"
b0 Q"
b11100 2
b11100 l
b11100 T"
b11000 1
b11000 m
b11000 8"
b11000 ="
b11000 X"
b1110 $
1!
#725
0!
#750
b11 5
b11 b
b11 K"
b11 T
b11 d
b11 s
b10 H
b10 }
b10 I"
b11111111111111111111111111111111 B
b11111111111111111111111111111111 j
b11111111111111111111111111111111 ,"
b11111111111111111111111111111111 `"
b0 _
b0 a
b0 E"
b11101 '"
b11111 )"
b1111111000 *"
b11111 \"
b11111 ""
b11111111111001011000111100010011 >
b11111111111001011000111100010011 9"
b11111111111001011000111100010011 <"
b100000 3
b100000 V"
b100000 W"
b0 ,
b0 z
b0 B"
b0 Y"
b1011 7
b1011 w
b1011 y
b1011 ?"
b11 =
b11 r
b11 v
b11 >"
b11 H"
b11 M"
19
b0 C
b0 {
b0 3"
b11100 M
b11100 u
b11100 %"
b11100 0"
b0 L
b0 6"
b0 D"
b11111111111101011000111010010011 A
b11111111111101011000111010010011 :"
b11111111111101011000111010010011 _"
b10111 ]
b10111 h
b10111 U"
b11000 E
b11000 i
b11000 ;"
b100000 2
b100000 l
b100000 T"
b11100 1
b11100 m
b11100 8"
b11100 ="
b11100 X"
b1111 $
1!
#775
0!
#800
b10 T
b10 d
b10 s
b11111111111111111111111111111110 B
b11111111111111111111111111111110 j
b11111111111111111111111111111110 ,"
b11111111111111111111111111111110 `"
b1 H
b1 }
b1 I"
b11 @
b11 $"
b11 ."
b11 ^"
b11110 '"
b11110 )"
b11110 \"
b11110 ""
b11111111111111111111111111111111 _
b11111111111111111111111111111111 a
b11111111111111111111111111111111 E"
b11 +
b11 J"
b11 O"
b11 S"
b11 Z"
b100100 3
b100100 V"
b100100 W"
b11111111111001011000111100010011 A
b11111111111001011000111100010011 :"
b11111111111001011000111100010011 _"
b11010 ]
b11010 h
b11010 U"
b11100 E
b11100 i
b11100 ;"
b11111 C
b11111 {
b11111 3"
b11101 M
b11101 u
b11101 %"
b11101 0"
b1111111000 K
b1111111000 e
b1111111000 5"
b11111111111111111111111111111111 L
b11111111111111111111111111111111 6"
b11111111111111111111111111111111 D"
b11100 7
b11100 w
b11100 y
b11100 ?"
b1011 ,
b1011 z
b1011 B"
b1011 Y"
b11 0
b11 A"
b11 Q"
1.
b100100 2
b100100 l
b100100 T"
b100000 1
b100000 m
b100000 8"
b100000 ="
b100000 X"
b10000 $
1!
#825
0!
