codes/CPU.vcd
$date
	Sun Jan  3 14:32:03 2021
$end
$version
	Icarus Verilog
$end
$timescale
	1s
$end
$scope module testbench $end
$var wire 256 ! mem_cpu_data [255:0] $end
$var wire 1 " mem_cpu_ack $end
$var wire 1 # cpu_mem_write $end
$var wire 1 $ cpu_mem_enable $end
$var wire 256 % cpu_mem_data [255:0] $end
$var wire 32 & cpu_mem_addr [31:0] $end
$var reg 1 ' Clk $end
$var reg 1 ( Reset $end
$var reg 1 ) Start $end
$var reg 27 * address [26:0] $end
$var reg 1 + flag $end
$var reg 4 , index [3:0] $end
$var reg 25 - tag [24:0] $end
$var integer 32 . counter [31:0] $end
$var integer 32 / i [31:0] $end
$var integer 32 0 j [31:0] $end
$var integer 32 1 outfile [31:0] $end
$var integer 32 2 outfile2 [31:0] $end
$scope module CPU $end
$var wire 1 3 Hazard_Detection_Flush $end
$var wire 1 4 ID_NoOp $end
$var wire 1 ' clk_i $end
$var wire 1 ( rst_i $end
$var wire 1 ) start_i $end
$var wire 1 # mem_write_o $end
$var wire 1 $ mem_enable_o $end
$var wire 256 5 mem_data_o [255:0] $end
$var wire 256 6 mem_data_i [255:0] $end
$var wire 32 7 mem_addr_o [31:0] $end
$var wire 1 " mem_ack_i $end
$var wire 32 8 WB_write_data [31:0] $end
$var wire 5 9 WB_RDaddr [4:0] $end
$var wire 32 : WB_Data_Mem_out [31:0] $end
$var wire 1 ; WB_Ctrl_Reg_write $end
$var wire 1 < WB_Ctrl_Mem_to_Reg $end
$var wire 32 = WB_ALU_rst [31:0] $end
$var wire 32 > PC_out [31:0] $end
$var wire 32 ? PC_in [31:0] $end
$var wire 32 @ MUX_PCSrc_out [31:0] $end
$var wire 32 A MUX_Forwarding2_out [31:0] $end
$var wire 32 B MUX_Forwarding1_out [31:0] $end
$var wire 32 C MEM_read_data_2 [31:0] $end
$var wire 1 D MEM_dcache_stall $end
$var wire 5 E MEM_RDaddr [4:0] $end
$var wire 32 F MEM_Data_Mem_out [31:0] $end
$var wire 1 G MEM_Ctrl_Reg_write $end
$var wire 1 H MEM_Ctrl_Mem_write $end
$var wire 1 I MEM_Ctrl_Mem_to_Reg $end
$var wire 1 J MEM_Ctrl_Mem_read $end
$var wire 32 K MEM_ALU_rst [31:0] $end
$var wire 32 L IF_instruction [31:0] $end
$var wire 32 M ID_read_data_2 [31:0] $end
$var wire 32 N ID_read_data_1 [31:0] $end
$var wire 32 O ID_instruction [31:0] $end
$var wire 32 P ID_Sign_Extend_out [31:0] $end
$var wire 5 Q ID_RS2addr [4:0] $end
$var wire 5 R ID_RS1addr [4:0] $end
$var wire 32 S ID_PC_out [31:0] $end
$var wire 1 T Hazard_Detection_Stall $end
$var wire 2 U ForwardB [1:0] $end
$var wire 2 V ForwardA [1:0] $end
$var wire 32 W EX_read_data_2 [31:0] $end
$var wire 32 X EX_read_data_1 [31:0] $end
$var wire 10 Y EX_funct [9:0] $end
$var wire 32 Z EX_Sign_Extend_out [31:0] $end
$var wire 5 [ EX_RDaddr [4:0] $end
$var wire 1 \ EX_Ctrl_Reg_write $end
$var wire 1 ] EX_Ctrl_Mem_write $end
$var wire 1 ^ EX_Ctrl_Mem_to_Reg $end
$var wire 1 _ EX_Ctrl_Mem_read $end
$var wire 1 ` EX_Ctrl_ALU_src $end
$var wire 2 a EX_Ctrl_ALU_op [1:0] $end
$var wire 32 b EX_ALU_rst [31:0] $end
$var wire 1 c Ctrl_Reg_write $end
$var wire 1 d Ctrl_PCWrite $end
$var wire 1 e Ctrl_Mem_write $end
$var wire 1 f Ctrl_Mem_to_Reg $end
$var wire 1 g Ctrl_Mem_read $end
$var wire 1 h Ctrl_Branch $end
$var wire 1 i Ctrl_ALU_src $end
$var wire 2 j Ctrl_ALU_op [1:0] $end
$var wire 32 k Branch_Target [31:0] $end
$var wire 1 l ALU_zero $end
$var wire 32 m ALU_src [31:0] $end
$var wire 3 n ALUCtrl_out [2:0] $end
$scope module ALU $end
$var wire 32 o data2_i [31:0] $end
$var wire 32 p data1_i [31:0] $end
$var wire 3 q ALUCtrl_i [2:0] $end
$var reg 1 l Zero_o $end
$var reg 32 r data_o [31:0] $end
$upscope $end
$scope module ALU_Control $end
$var wire 10 s funct_i [9:0] $end
$var wire 2 t ALUOp_i [1:0] $end
$var reg 3 u ALUCtrl_o [2:0] $end
$upscope $end
$scope module Add_Branch $end
$var wire 32 v data_o [31:0] $end
$var wire 32 w data2_in [31:0] $end
$var wire 32 x data1_in [31:0] $end
$upscope $end
$scope module Add_PC $end
$var wire 32 y data2_in [31:0] $end
$var wire 32 z data_o [31:0] $end
$var wire 32 { data1_in [31:0] $end
$upscope $end
$scope module Control $end
$var wire 1 h Branch_o $end
$var wire 1 g MemRead_o $end
$var wire 1 e MemWrite_o $end
$var wire 1 f MemtoReg_o $end
$var wire 1 4 NoOp_i $end
$var wire 7 | Op_i [6:0] $end
$var wire 1 c RegWrite_o $end
$var reg 2 } ALUOp_o [1:0] $end
$var reg 1 i ALUSrc_o $end
$upscope $end
$scope module EX_MEM $end
$var wire 32 ~ ALU_rst_i [31:0] $end
$var wire 1 ' clk_i $end
$var wire 1 ( rst_i $end
$var wire 1 ) start_i $end
$var wire 32 !" writeData_i [31:0] $end
$var wire 1 D mem_stall_i $end
$var wire 1 \ RegWrite_i $end
$var wire 5 "" RDaddr_i [4:0] $end
$var wire 1 ^ MemtoReg_i $end
$var wire 1 ] MemWrite_i $end
$var wire 1 _ MemRead_i $end
$var reg 32 #" ALU_rst_o [31:0] $end
$var reg 1 J MemRead_o $end
$var reg 1 H MemWrite_o $end
$var reg 1 I MemtoReg_o $end
$var reg 5 $" RDaddr_o [4:0] $end
$var reg 1 G RegWrite_o $end
$var reg 32 %" writeData_o [31:0] $end
$upscope $end
$scope module Forwarding_Unit $end
$var wire 1 G EX_MEM_RegWrite_i $end
$var wire 5 &" EX_MEM_RegisterRd_i [4:0] $end
$var wire 5 '" MEM_WB_RegisterRd_i [4:0] $end
$var wire 1 ; MEM_WB_RegWrite_i $end
$var wire 5 (" ID_EX_RS2_i [4:0] $end
$var wire 5 )" ID_EX_RS1_i [4:0] $end
$var reg 2 *" ForwardA_o [1:0] $end
$var reg 2 +" ForwardB_o [1:0] $end
$upscope $end
$scope module Hazard_Detection $end
$var wire 5 ," IF_ID_RS1_i [4:0] $end
$var wire 5 -" IF_ID_RS2_i [4:0] $end
$var wire 1 h branch_i $end
$var wire 32 ." Registers_RS2data_i [31:0] $end
$var wire 32 /" Registers_RS1data_i [31:0] $end
$var wire 5 0" ID_EX_RegisterRd_i [4:0] $end
$var wire 1 _ ID_EX_MemRead_i $end
$var reg 1 d PCWrite_o $end
$var reg 1 T stall_o $end
$upscope $end
$scope module ID_EX $end
$var wire 2 1" ALUOp_i [1:0] $end
$var wire 1 i ALUSrc_i $end
$var wire 1 g MemRead_i $end
$var wire 1 e MemWrite_i $end
$var wire 1 f MemtoReg_i $end
$var wire 5 2" RDaddr_i [4:0] $end
$var wire 5 3" RS1addr_i [4:0] $end
$var wire 5 4" RS2addr_i [4:0] $end
$var wire 1 c RegWrite_i $end
$var wire 1 ' clk_i $end
$var wire 10 5" funct_i [9:0] $end
$var wire 32 6" pc_i [31:0] $end
$var wire 1 ( rst_i $end
$var wire 1 ) start_i $end
$var wire 1 D mem_stall_i $end
$var wire 32 7" imm_i [31:0] $end
$var wire 32 8" RS2data_i [31:0] $end
$var wire 32 9" RS1data_i [31:0] $end
$var reg 2 :" ALUOp_o [1:0] $end
$var reg 1 ` ALUSrc_o $end
$var reg 1 _ MemRead_o $end
$var reg 1 ] MemWrite_o $end
$var reg 1 ^ MemtoReg_o $end
$var reg 5 ;" RDaddr_o [4:0] $end
$var reg 5 <" RS1addr_o [4:0] $end
$var reg 32 =" RS1data_o [31:0] $end
$var reg 5 >" RS2addr_o [4:0] $end
$var reg 32 ?" RS2data_o [31:0] $end
$var reg 1 \ RegWrite_o $end
$var reg 10 @" funct_o [9:0] $end
$var reg 32 A" imm_o [31:0] $end
$var reg 32 B" pc_o [31:0] $end
$upscope $end
$scope module IF_ID $end
$var wire 1 ' clk_i $end
$var wire 1 3 flush_i $end
$var wire 1 ( rst_i $end
$var wire 1 T stall_i $end
$var wire 1 ) start_i $end
$var wire 32 C" pc_i [31:0] $end
$var wire 1 D mem_stall_i $end
$var wire 32 D" instr_i [31:0] $end
$var reg 32 E" instr_o [31:0] $end
$var reg 32 F" pc_o [31:0] $end
$upscope $end
$scope module Instruction_Memory $end
$var wire 32 G" instr_o [31:0] $end
$var wire 32 H" addr_i [31:0] $end
$upscope $end
$scope module MEM_WB $end
$var wire 32 I" ALU_rst_i [31:0] $end
$var wire 1 I MemtoReg_i $end
$var wire 5 J" RDaddr_i [4:0] $end
$var wire 1 G RegWrite_i $end
$var wire 1 ' clk_i $end
$var wire 1 ( rst_i $end
$var wire 1 ) start_i $end
$var wire 1 D mem_stall_i $end
$var wire 32 K" ReadData_i [31:0] $end
$var reg 32 L" ALU_rst_o [31:0] $end
$var reg 1 < MemtoReg_o $end
$var reg 5 M" RDaddr_o [4:0] $end
$var reg 32 N" ReadData_o [31:0] $end
$var reg 1 ; RegWrite_o $end
$upscope $end
$scope module MUX_ALUSrc $end
$var wire 32 O" data2_i [31:0] $end
$var wire 1 ` select_i $end
$var wire 32 P" data_o [31:0] $end
$var wire 32 Q" data1_i [31:0] $end
$upscope $end
$scope module MUX_Forwarding_1 $end
$var wire 32 R" data1_i [31:0] $end
$var wire 32 S" data3_i [31:0] $end
$var wire 2 T" select_i [1:0] $end
$var wire 32 U" data2_i [31:0] $end
$var reg 32 V" data_o [31:0] $end
$upscope $end
$scope module MUX_Forwarding_2 $end
$var wire 32 W" data1_i [31:0] $end
$var wire 32 X" data3_i [31:0] $end
$var wire 2 Y" select_i [1:0] $end
$var wire 32 Z" data2_i [31:0] $end
$var reg 32 [" data_o [31:0] $end
$upscope $end
$scope module MUX_MemtoReg $end
$var wire 32 \" data1_i [31:0] $end
$var wire 32 ]" data2_i [31:0] $end
$var wire 1 < select_i $end
$var wire 32 ^" data_o [31:0] $end
$upscope $end
$scope module MUX_PCSrc $end
$var wire 32 _" data1_i [31:0] $end
$var wire 32 `" data2_i [31:0] $end
$var wire 1 3 select_i $end
$var wire 32 a" data_o [31:0] $end
$upscope $end
$scope module PC $end
$var wire 1 d PCWrite_i $end
$var wire 1 ' clk_i $end
$var wire 32 b" pc_i [31:0] $end
$var wire 1 ( rst_i $end
$var wire 1 ) start_i $end
$var wire 1 D stall_i $end
$var reg 32 c" pc_o [31:0] $end
$upscope $end
$scope module Registers $end
$var wire 5 d" RDaddr_i [4:0] $end
$var wire 32 e" RDdata_i [31:0] $end
$var wire 5 f" RS1addr_i [4:0] $end
$var wire 5 g" RS2addr_i [4:0] $end
$var wire 1 ; RegWrite_i $end
$var wire 1 ' clk_i $end
$var wire 32 h" RS2data_o [31:0] $end
$var wire 32 i" RS1data_o [31:0] $end
$upscope $end
$scope module Sign_Extend $end
$var wire 32 j" instruction_i [31:0] $end
$var reg 32 k" data_o [31:0] $end
$upscope $end
$scope module dcache $end
$var wire 1 l" cache_dirty $end
$var wire 1 m" cache_sram_enable $end
$var wire 4 n" cache_sram_index [3:0] $end
$var wire 1 o" cache_sram_write $end
$var wire 1 ' clk_i $end
$var wire 1 J cpu_MemRead_i $end
$var wire 1 H cpu_MemWrite_i $end
$var wire 32 p" cpu_addr_i [31:0] $end
$var wire 32 q" cpu_data_i [31:0] $end
$var wire 32 r" cpu_data_o [31:0] $end
$var wire 1 s" cpu_req $end
$var wire 1 D cpu_stall_o $end
$var wire 256 t" mem_data_o [255:0] $end
$var wire 1 $ mem_enable_o $end
$var wire 1 # mem_write_o $end
$var wire 1 ( rst_i $end
$var wire 1 u" write_hit $end
$var wire 1 v" sram_valid $end
$var wire 22 w" sram_tag [21:0] $end
$var wire 1 x" sram_dirty $end
$var wire 25 y" sram_cache_tag [24:0] $end
$var wire 256 z" sram_cache_data [255:0] $end
$var wire 256 {" r_hit_data [255:0] $end
$var wire 256 |" mem_data_i [255:0] $end
$var wire 32 }" mem_addr_o [31:0] $end
$var wire 1 " mem_ack_i $end
$var wire 1 ~" hit $end
$var wire 23 !# cpu_tag [22:0] $end
$var wire 5 "# cpu_offset [4:0] $end
$var wire 4 ## cpu_index [3:0] $end
$var wire 25 $# cache_sram_tag [24:0] $end
$var wire 256 %# cache_sram_data [255:0] $end
$var reg 1 &# cache_write $end
$var reg 32 '# cpu_data [31:0] $end
$var reg 1 (# mem_enable $end
$var reg 1 )# mem_write $end
$var reg 3 *# state [2:0] $end
$var reg 256 +# w_hit_data [255:0] $end
$var reg 1 ,# write_back $end
$scope module dcache_sram $end
$var wire 4 -# addr_i [3:0] $end
$var wire 1 ' clk_i $end
$var wire 256 .# data_i [255:0] $end
$var wire 1 m" enable_i $end
$var wire 1 /# hit_0 $end
$var wire 1 0# hit_1 $end
$var wire 1 ~" hit_o $end
$var wire 1 ( rst_i $end
$var wire 25 1# tag_i [24:0] $end
$var wire 1 o" write_i $end
$var wire 25 2# tag_o [24:0] $end
$var wire 256 3# data_o [255:0] $end
$var integer 32 4# i [31:0] $end
$var integer 32 5# j [31:0] $end
$upscope $end
$upscope $end
$upscope $end
$scope module Data_Memory $end
$var wire 1 " ack_o $end
$var wire 32 6# addr_i [31:0] $end
$var wire 1 ' clk_i $end
$var wire 256 7# data_i [255:0] $end
$var wire 256 8# data_o [255:0] $end
$var wire 1 $ enable_i $end
$var wire 1 ( rst_i $end
$var wire 1 # write_i $end
$var wire 27 9# addr [26:0] $end
$var reg 4 :# count [3:0] $end
$var reg 256 ;# data [255:0] $end
$var reg 2 <# state [1:0] $end
$upscope $end
$upscope $end
$enddefinitions $end
#0
$dumpvars
b0 <#
bx ;#
b0 :#
bx 9#
bx 8#
bx 7#
bx00000 6#
b10 5#
b10000 4#
bx 3#
bx 2#
b1xxxxxxxxxxxxxxxxxxxxxxxx 1#
x0#
x/#
bx .#
bx -#
0,#
bx +#
b0 *#
0)#
0(#
bx '#
0&#
bx %#
b1xxxxxxxxxxxxxxxxxxxxxxxx $#
bx ##
bx "#
bx !#
x~"
bx00000 }"
bx |"
bx {"
bx z"
bx y"
xx"
bx w"
xv"
xu"
bx t"
xs"
bx r"
bx q"
bx p"
xo"
bx n"
xm"
xl"
bx k"
bx j"
bx i"
bx h"
bx g"
bx f"
bx e"
bx d"
b0 c"
bx b"
bx a"
bx `"
b100 _"
bx ^"
bx ]"
bx \"
bx ["
bx Z"
bx Y"
bx X"
bx W"
bx V"
bx U"
bx T"
bx S"
bx R"
bx Q"
bx P"
bx O"
bx N"
bx M"
bx L"
bx K"
bx J"
bx I"
b0 H"
bx G"
bx F"
bx E"
bx D"
b0 C"
bx B"
bx A"
bx @"
bx ?"
bx >"
bx ="
bx <"
bx ;"
bx :"
bx 9"
bx 8"
bx 7"
bz 6"
bx 5"
bx 4"
bx 3"
bx 2"
bx 1"
bx 0"
bx /"
bx ."
bx -"
bx ,"
bx +"
bx *"
bx )"
bx ("
bx '"
bx &"
bx %"
bx $"
bx #"
bx ""
bx !"
bx ~
bx }
bx |
b0 {
b100 z
b100 y
bx x
bx w
bx v
bx u
bx t
bx s
bx r
bx q
bx p
bx o
bx n
bx m
xl
bx k
bx j
xi
xh
xg
xf
xe
xd
xc
bx b
bx a
x`
x_
x^
x]
x\
bx [
bx Z
bx Y
bx X
bx W
bx V
bx U
xT
bx S
bx R
bx Q
bx P
bx O
bx N
bx M
bx L
bx K
xJ
xI
xH
xG
bx F
bx E
xD
bx C
bx B
bx A
bx @
b100 ?
b0 >
bx =
x<
x;
bx :
bx 9
bx 8
bx00000 7
bx 6
bx 5
x4
x3
bx 2
bx 1
bx 0
bx /
b0 .
bx -
bx ,
x+
bx *
0)
1(
0'
bx00000 &
bx %
0$
0#
0"
bx !
$end
#12
b0 b
b0 r
b0 ~
b0 m
b0 o
b0 P"
0l
b0 A
b0 !"
b0 Q"
b0 ["
b0 B
b0 p
b0 V"
0i
b0 j
b0 }
b0 1"
bx00000000000000000000000000000000 +#
b0 U
b0 +"
b0 Y"
b0 V
b0 *"
b0 T"
0T
1d
b0 P
b0 x
b0 7"
b0 k"
0~"
b0 9#
b0 w"
b100 @
b100 a"
b100 b"
0/#
00#
0x"
0v"
0c
03
b0 &
b0 7
b0 }"
b0 6#
b0 %
b0 5
b0 t"
b0 7#
b0 z"
b0 3#
b0 y"
b0 2#
0o"
0D
b0 M
b0 ."
b0 8"
b0 h"
b0 N
b0 /"
b0 9"
b0 i"
0h
0e
0g
0f
b0 8
b0 U"
b0 Z"
b0 ^"
b0 e"
b0 !#
b0 n"
b0 -#
b0 ##
b0 "#
b1000000000000000000000000 $#
b1000000000000000000000000 1#
0l"
0u"
0m"
0s"
b0 2"
b0 4"
b0 3"
b0 5"
b0 g"
b0 f"
14
b0 -"
b0 ,"
b0 |
b101 2
b11 1
b0 9
b0 '"
b0 M"
b0 d"
b0 =
b0 L"
b0 \"
b0 :
b0 N"
b0 ]"
0<
0;
b0 C
b0 %"
b0 q"
b0 K
b0 #"
b0 I"
b0 S"
b0 X"
b0 p"
0H
0J
0I
b0 E
b0 $"
b0 &"
b0 J"
0G
b0 Q
b0 ("
b0 >"
b0 R
b0 )"
b0 <"
b0 [
b0 ""
b0 0"
b0 ;"
b0 Y
b0 s
b0 @"
b0 Z
b0 A"
b0 O"
b0 W
b0 ?"
b0 W"
b0 X
b0 ="
b0 R"
0^
0_
0]
0\
0`
b0 O
b0 E"
b0 j"
b10 0
b10010000000011 L
b10010000000011 D"
b10010000000011 G"
b1000000000 /
1)
0(
#25
1i
b100 n
b100 q
b100 u
1c
1g
1f
b1000 2"
b10 5"
04
b11 |
b10000000010010010000011 L
b10000000010010010000011 D"
b10000000010010010000011 G"
b1000 @
b1000 a"
b1000 b"
b10010000000011 O
b10010000000011 E"
b10010000000011 j"
b0 k
b0 v
b0 `"
b0 S
b0 w
b0 F"
b0 a
b0 t
b0 :"
bx :
bx N"
bx ]"
b1000 ?
b1000 z
b1000 _"
b100 >
b100 {
b100 C"
b100 H"
b100 c"
b1 .
0+
1'
#50
0'
#75
b100 P
b100 x
b100 7"
b100 k"
b1001 2"
b100 4"
b100 g"
b100 -"
b100000000010010100000011 L
b100000000010010100000011 D"
b100000000010010100000011 G"
b1100 @
b1100 a"
b1100 b"
b1000 [
b1000 ""
b1000 0"
b1000 ;"
b10 Y
b10 s
b10 @"
1^
1_
1\
1`
b10000000010010010000011 O
b10000000010010010000011 E"
b10000000010010010000011 j"
b1000 k
b1000 v
b1000 `"
b100 S
b100 w
b100 F"
b1100 ?
b1100 z
b1100 _"
b1000 >
b1000 {
b1000 C"
b1000 H"
b1000 c"
b10 .
1'
#100
0'
#125
b100 b
b100 r
b100 ~
b1000 P
b1000 x
b1000 7"
b1000 k"
1D
b1010 2"
b1000 4"
b1000 g"
b1000 -"
b100 m
b100 o
b100 P"
1m"
1s"
b110000000010010110000011 L
b110000000010010110000011 D"
b110000000010010110000011 G"
b10000 @
b10000 a"
b10000 b"
b100000000010010100000011 O
b100000000010010100000011 E"
b100000000010010100000011 j"
b10000 k
b10000 v
b10000 `"
b1000 S
b1000 w
b1000 F"
b100 Q
b100 ("
b100 >"
b1001 [
b1001 ""
b1001 0"
b1001 ;"
b100 Z
b100 A"
b100 O"
b1000 E
b1000 $"
b1000 &"
b1000 J"
1J
1I
1G
b10000 ?
b10000 z
b10000 _"
b1100 >
b1100 {
b1100 C"
b1100 H"
b1100 c"
b11 .
1'
#150
0'
#175
b100 *#
b100 .
1+
1'
#200
0'
#225
b1 *#
1$
1(#
b101 .
1'
#250
0'
#275
b1 :#
b1 <#
b110 .
1'
#300
0'
#325
b10 :#
b111 .
1'
#350
0'
#375
b11 :#
b1000 .
1'
#400
0'
#425
b100 :#
b1001 .
1'
#450
0'
#475
b101 :#
b1010 .
1'
#500
0'
#525
b110 :#
b1011 .
1'
#550
0'
#575
b111 :#
b1100 .
1'
#600
0'
#625
b1000 :#
b1101 .
1'
#650
0'
#675
1"
b1001 :#
b1110 .
1'
#700
0'
#725
0"
1o"
b100010001000100100010001000100011001100110011010001000100010001010101010101010110011001100110011101110111011110001000100010001001100110011001101010101010101010111011101110111100110011001100110111011101110100000000000000000000000000000000 +#
b11101110111011101111111111111111 F
b11101110111011101111111111111111 K"
b11101110111011101111111111111111 r"
b11101110111011101111111111111111 '#
b0 :#
b0 <#
b10 *#
1&#
0$
0(#
b100010001000100100010001000100011001100110011010001000100010001010101010101010110011001100110011101110111011110001000100010001001100110011001101010101010101010111011101110111100110011001100110111011101110111101110111011101111111111111111 {"
b100010001000100100010001000100011001100110011010001000100010001010101010101010110011001100110011101110111011110001000100010001001100110011001101010101010101010111011101110111100110011001100110111011101110111101110111011101111111111111111 %#
b100010001000100100010001000100011001100110011010001000100010001010101010101010110011001100110011101110111011110001000100010001001100110011001101010101010101010111011101110111100110011001100110111011101110111101110111011101111111111111111 .#
b100010001000100100010001000100011001100110011010001000100010001010101010101010110011001100110011101110111011110001000100010001001100110011001101010101010101010111011101110111100110011001100110111011101110111101110111011101111111111111111 !
b100010001000100100010001000100011001100110011010001000100010001010101010101010110011001100110011101110111011110001000100010001001100110011001101010101010101010111011101110111100110011001100110111011101110111101110111011101111111111111111 6
b100010001000100100010001000100011001100110011010001000100010001010101010101010110011001100110011101110111011110001000100010001001100110011001101010101010101010111011101110111100110011001100110111011101110111101110111011101111111111111111 |"
b100010001000100100010001000100011001100110011010001000100010001010101010101010110011001100110011101110111011110001000100010001001100110011001101010101010101010111011101110111100110011001100110111011101110111101110111011101111111111111111 8#
b100010001000100100010001000100011001100110011010001000100010001010101010101010110011001100110011101110111011110001000100010001001100110011001101010101010101010111011101110111100110011001100110111011101110111101110111011101111111111111111 ;#
b1111 .
1'
#750
0'
#775
0D
b100010001000100100010001000100011001100110011010001000100010001010101010101010110011001100110011101110111011110001000100010001001100110011001101010101010101010111011101110111100110011001100110111011101110100000000000000000000000000000000 %#
b100010001000100100010001000100011001100110011010001000100010001010101010101010110011001100110011101110111011110001000100010001001100110011001101010101010101010111011101110111100110011001100110111011101110100000000000000000000000000000000 .#
1~"
1v"
b100010001000100100010001000100011001100110011010001000100010001010101010101010110011001100110011101110111011110001000100010001001100110011001101010101010101010111011101110111100110011001100110111011101110111101110111011101111111111111111 %
b100010001000100100010001000100011001100110011010001000100010001010101010101010110011001100110011101110111011110001000100010001001100110011001101010101010101010111011101110111100110011001100110111011101110111101110111011101111111111111111 5
b100010001000100100010001000100011001100110011010001000100010001010101010101010110011001100110011101110111011110001000100010001001100110011001101010101010101010111011101110111100110011001100110111011101110111101110111011101111111111111111 t"
b100010001000100100010001000100011001100110011010001000100010001010101010101010110011001100110011101110111011110001000100010001001100110011001101010101010101010111011101110111100110011001100110111011101110111101110111011101111111111111111 7#
b100010001000100100010001000100011001100110011010001000100010001010101010101010110011001100110011101110111011110001000100010001001100110011001101010101010101010111011101110111100110011001100110111011101110111101110111011101111111111111111 z"
b100010001000100100010001000100011001100110011010001000100010001010101010101010110011001100110011101110111011110001000100010001001100110011001101010101010101010111011101110111100110011001100110111011101110111101110111011101111111111111111 3#
1/#
b1000000000000000000000000 y"
b1000000000000000000000000 2#
0o"
b0 *#
0&#
b10000 .
1'
#800
0'
#825
b11101110111011101111111111111111 A
b11101110111011101111111111111111 !"
b11101110111011101111111111111111 Q"
b11101110111011101111111111111111 ["
b100010001000100100010001000100011001100110011010001000100010001010101010101010110011001100110011101110111011110001000100010001001100110011001101010101010101010111011101110110000000000000000000000000000000011101110111011101111111111111111 %#
b100010001000100100010001000100011001100110011010001000100010001010101010101010110011001100110011101110111011110001000100010001001100110011001101010101010101010111011101110110000000000000000000000000000000011101110111011101111111111111111 .#
b1000 b
b1000 r
b1000 ~
b100010001000100100010001000100011001100110011010001000100010001010101010101010110011001100110011101110111011110001000100010001001100110011001101010101010101010111011101110110000000000000000000000000000000011101110111011101111111111111111 +#
b11001100110011001101110111011101 F
b11001100110011001101110111011101 K"
b11001100110011001101110111011101 r"
b11001100110011001101110111011101 '#
b1100 P
b1100 x
b1100 7"
b1100 k"
b1 U
b1 +"
b1 Y"
b0 M
b0 ."
b0 8"
b0 h"
b1011 2"
b1100 4"
b1100 g"
b1100 -"
b1000 m
b1000 o
b1000 P"
b100 "#
b11101110111011101111111111111111 8
b11101110111011101111111111111111 U"
b11101110111011101111111111111111 Z"
b11101110111011101111111111111111 ^"
b11101110111011101111111111111111 e"
b1000000000010011000000011 L
b1000000000010011000000011 D"
b1000000000010011000000011 G"
b10100 @
b10100 a"
b10100 b"
b110000000010010110000011 O
b110000000010010110000011 E"
b110000000010010110000011 j"
b11000 k
b11000 v
b11000 `"
b1100 S
b1100 w
b1100 F"
b1000 Q
b1000 ("
b1000 >"
b1010 [
b1010 ""
b1010 0"
b1010 ;"
b1000 Z
b1000 A"
b1000 O"
b1001 E
b1001 $"
b1001 &"
b1001 J"
b100 K
b100 #"
b100 I"
b100 S"
b100 X"
b100 p"
b1000 9
b1000 '"
b1000 M"
b1000 d"
b11101110111011101111111111111111 :
b11101110111011101111111111111111 N"
b11101110111011101111111111111111 ]"
1<
1;
b10100 ?
b10100 z
b10100 _"
b10000 >
b10000 {
b10000 C"
b10000 H"
b10000 c"
b10001 .
0+
1'
#850
0'
#875
b100010001000100100010001000100011001100110011010001000100010001010101010101010110011001100110011101110111011110001000100010001001100110011001111011101110111011111111111111111100110011001100110111011101110111101110111011101111111111111111 %#
b100010001000100100010001000100011001100110011010001000100010001010101010101010110011001100110011101110111011110001000100010001001100110011001111011101110111011111111111111111100110011001100110111011101110111101110111011101111111111111111 .#
b0 A
b0 !"
b0 Q"
b0 ["
b10101010101010101011101110111011 F
b10101010101010101011101110111011 K"
b10101010101010101011101110111011 r"
b10101010101010101011101110111011 '#
b1100 b
b1100 r
b1100 ~
b100010001000100100010001000100011001100110011010001000100010001010101010101010110011001100110011101110111011110001000100010001001100110011001111011101110111011111111111111111100110011001100110111011101110111101110111011101111111111111111 +#
b0 U
b0 +"
b0 Y"
b10000 P
b10000 x
b10000 7"
b10000 k"
b11001100110011001101110111011101 8
b11001100110011001101110111011101 U"
b11001100110011001101110111011101 Z"
b11001100110011001101110111011101 ^"
b11001100110011001101110111011101 e"
b1000 "#
b1100 m
b1100 o
b1100 P"
b1100 2"
b10000 4"
b10000 g"
b10000 -"
b1010000000010011010000011 L
b1010000000010011010000011 D"
b1010000000010011010000011 G"
b11000 @
b11000 a"
b11000 b"
b1001 9
b1001 '"
b1001 M"
b1001 d"
b100 =
b100 L"
b100 \"
b11001100110011001101110111011101 :
b11001100110011001101110111011101 N"
b11001100110011001101110111011101 ]"
b1010 E
b1010 $"
b1010 &"
b1010 J"
b11101110111011101111111111111111 C
b11101110111011101111111111111111 %"
b11101110111011101111111111111111 q"
b1000 K
b1000 #"
b1000 I"
b1000 S"
b1000 X"
b1000 p"
b1100 Q
b1100 ("
b1100 >"
b1011 [
b1011 ""
b1011 0"
b1011 ;"
b1100 Z
b1100 A"
b1100 O"
b1000000000010011000000011 O
b1000000000010011000000011 E"
b1000000000010011000000011 j"
b100000 k
b100000 v
b100000 `"
b10000 S
b10000 w
b10000 F"
b11000 ?
b11000 z
b11000 _"
b10100 >
b10100 {
b10100 C"
b10100 H"
b10100 c"
b10010 .
1'
#900
0'
#925
b100010001000100100010001000100011001100110011010001000100010001010101010101010110011001100110011101110111011100000000000000000000000000000000101010101010101010111011101110111100110011001100110111011101110111101110111011101111111111111111 %#
b100010001000100100010001000100011001100110011010001000100010001010101010101010110011001100110011101110111011100000000000000000000000000000000101010101010101010111011101110111100110011001100110111011101110111101110111011101111111111111111 .#
b10000 b
b10000 r
b10000 ~
b10001000100010001001100110011001 F
b10001000100010001001100110011001 K"
b10001000100010001001100110011001 r"
b10001000100010001001100110011001 '#
b10100 P
b10100 x
b10100 7"
b10100 k"
b100010001000100100010001000100011001100110011010001000100010001010101010101010110011001100110011101110111011100000000000000000000000000000000101010101010101010111011101110111100110011001100110111011101110111101110111011101111111111111111 +#
b1101 2"
b10100 4"
b10100 g"
b10100 -"
b10000 m
b10000 o
b10000 P"
b1100 "#
b10101010101010101011101110111011 8
b10101010101010101011101110111011 U"
b10101010101010101011101110111011 Z"
b10101010101010101011101110111011 ^"
b10101010101010101011101110111011 e"
b1100000000010011100000011 L
b1100000000010011100000011 D"
b1100000000010011100000011 G"
b11100 @
b11100 a"
b11100 b"
b1010000000010011010000011 O
b1010000000010011010000011 E"
b1010000000010011010000011 j"
b101000 k
b101000 v
b101000 `"
b10100 S
b10100 w
b10100 F"
b10000 Q
b10000 ("
b10000 >"
b1100 [
b1100 ""
b1100 0"
b1100 ;"
b10000 Z
b10000 A"
b10000 O"
b1011 E
b1011 $"
b1011 &"
b1011 J"
b0 C
b0 %"
b0 q"
b1100 K
b1100 #"
b1100 I"
b1100 S"
b1100 X"
b1100 p"
b1010 9
b1010 '"
b1010 M"
b1010 d"
b1000 =
b1000 L"
b1000 \"
b10101010101010101011101110111011 :
b10101010101010101011101110111011 N"
b10101010101010101011101110111011 ]"
b11100 ?
b11100 z
b11100 _"
b11000 >
b11000 {
b11000 C"
b11000 H"
b11000 c"
b10011 .
1'
#950
0'
