codes/CPU.vcd
$date
	Wed Dec 30 20:37:27 2020
$end
$version
	Icarus Verilog
$end
$timescale
	1s
$end
$scope module testbench $end
$var wire 256 ! mem_cpu_data [255:0] $end
$var wire 1 " mem_cpu_ack $end
$var wire 1 # cpu_mem_write $end
$var wire 1 $ cpu_mem_enable $end
$var wire 256 % cpu_mem_data [255:0] $end
$var wire 32 & cpu_mem_addr [31:0] $end
$var reg 1 ' Clk $end
$var reg 1 ( Reset $end
$var reg 1 ) Start $end
$var reg 27 * address [26:0] $end
$var reg 1 + flag $end
$var reg 4 , index [3:0] $end
$var reg 25 - tag [24:0] $end
$var integer 32 . counter [31:0] $end
$var integer 32 / i [31:0] $end
$var integer 32 0 j [31:0] $end
$var integer 32 1 outfile [31:0] $end
$var integer 32 2 outfile2 [31:0] $end
$scope module CPU $end
$var wire 1 3 Hazard_Detection_Flush $end
$var wire 1 4 ID_NoOp $end
$var wire 1 ' clk_i $end
$var wire 1 ( rst_i $end
$var wire 1 ) start_i $end
$var wire 1 # mem_write_o $end
$var wire 1 $ mem_enable_o $end
$var wire 256 5 mem_data_o [255:0] $end
$var wire 256 6 mem_data_i [255:0] $end
$var wire 32 7 mem_addr_o [31:0] $end
$var wire 1 " mem_ack_i $end
$var wire 32 8 WB_write_data [31:0] $end
$var wire 5 9 WB_RDaddr [4:0] $end
$var wire 32 : WB_Data_Mem_out [31:0] $end
$var wire 1 ; WB_Ctrl_Reg_write $end
$var wire 1 < WB_Ctrl_Mem_to_Reg $end
$var wire 32 = WB_ALU_rst [31:0] $end
$var wire 32 > PC_out [31:0] $end
$var wire 32 ? PC_in [31:0] $end
$var wire 32 @ MUX_PCSrc_out [31:0] $end
$var wire 32 A MUX_Forwarding2_out [31:0] $end
$var wire 32 B MUX_Forwarding1_out [31:0] $end
$var wire 32 C MEM_read_data_2 [31:0] $end
$var wire 1 D MEM_dcache_stall $end
$var wire 5 E MEM_RDaddr [4:0] $end
$var wire 32 F MEM_Data_Mem_out [31:0] $end
$var wire 1 G MEM_Ctrl_Reg_write $end
$var wire 1 H MEM_Ctrl_Mem_write $end
$var wire 1 I MEM_Ctrl_Mem_to_Reg $end
$var wire 1 J MEM_Ctrl_Mem_read $end
$var wire 32 K MEM_ALU_rst [31:0] $end
$var wire 32 L IF_instruction [31:0] $end
$var wire 32 M ID_read_data_2 [31:0] $end
$var wire 32 N ID_read_data_1 [31:0] $end
$var wire 32 O ID_instruction [31:0] $end
$var wire 32 P ID_Sign_Extend_out [31:0] $end
$var wire 5 Q ID_RS2addr [4:0] $end
$var wire 5 R ID_RS1addr [4:0] $end
$var wire 32 S ID_PC_out [31:0] $end
$var wire 1 T Hazard_Detection_Stall $end
$var wire 2 U ForwardB [1:0] $end
$var wire 2 V ForwardA [1:0] $end
$var wire 32 W EX_read_data_2 [31:0] $end
$var wire 32 X EX_read_data_1 [31:0] $end
$var wire 10 Y EX_funct [9:0] $end
$var wire 32 Z EX_Sign_Extend_out [31:0] $end
$var wire 5 [ EX_RDaddr [4:0] $end
$var wire 1 \ EX_Ctrl_Reg_write $end
$var wire 1 ] EX_Ctrl_Mem_write $end
$var wire 1 ^ EX_Ctrl_Mem_to_Reg $end
$var wire 1 _ EX_Ctrl_Mem_read $end
$var wire 1 ` EX_Ctrl_ALU_src $end
$var wire 2 a EX_Ctrl_ALU_op [1:0] $end
$var wire 32 b EX_ALU_rst [31:0] $end
$var wire 1 c Ctrl_Reg_write $end
$var wire 1 d Ctrl_PCWrite $end
$var wire 1 e Ctrl_Mem_write $end
$var wire 1 f Ctrl_Mem_to_Reg $end
$var wire 1 g Ctrl_Mem_read $end
$var wire 1 h Ctrl_Branch $end
$var wire 1 i Ctrl_ALU_src $end
$var wire 2 j Ctrl_ALU_op [1:0] $end
$var wire 32 k Branch_Target [31:0] $end
$var wire 1 l ALU_zero $end
$var wire 32 m ALU_src [31:0] $end
$var wire 3 n ALUCtrl_out [2:0] $end
$scope module ALU $end
$var wire 32 o data2_i [31:0] $end
$var wire 32 p data1_i [31:0] $end
$var wire 3 q ALUCtrl_i [2:0] $end
$var reg 1 l Zero_o $end
$var reg 32 r data_o [31:0] $end
$upscope $end
$scope module ALU_Control $end
$var wire 10 s funct_i [9:0] $end
$var wire 2 t ALUOp_i [1:0] $end
$var reg 3 u ALUCtrl_o [2:0] $end
$upscope $end
$scope module Add_Branch $end
$var wire 32 v data_o [31:0] $end
$var wire 32 w data2_in [31:0] $end
$var wire 32 x data1_in [31:0] $end
$upscope $end
$scope module Add_PC $end
$var wire 32 y data2_in [31:0] $end
$var wire 32 z data_o [31:0] $end
$var wire 32 { data1_in [31:0] $end
$upscope $end
$scope module Control $end
$var wire 1 h Branch_o $end
$var wire 1 g MemRead_o $end
$var wire 1 e MemWrite_o $end
$var wire 1 f MemtoReg_o $end
$var wire 1 4 NoOp_i $end
$var wire 7 | Op_i [6:0] $end
$var wire 1 c RegWrite_o $end
$var reg 2 } ALUOp_o [1:0] $end
$var reg 1 i ALUSrc_o $end
$upscope $end
$scope module EX_MEM $end
$var wire 32 ~ ALU_rst_i [31:0] $end
$var wire 1 ' clk_i $end
$var wire 1 ( rst_i $end
$var wire 1 ) start_i $end
$var wire 32 !" writeData_i [31:0] $end
$var wire 1 D mem_stall_i $end
$var wire 1 \ RegWrite_i $end
$var wire 5 "" RDaddr_i [4:0] $end
$var wire 1 ^ MemtoReg_i $end
$var wire 1 ] MemWrite_i $end
$var wire 1 _ MemRead_i $end
$var reg 32 #" ALU_rst_o [31:0] $end
$var reg 1 J MemRead_o $end
$var reg 1 H MemWrite_o $end
$var reg 1 I MemtoReg_o $end
$var reg 5 $" RDaddr_o [4:0] $end
$var reg 1 G RegWrite_o $end
$var reg 32 %" writeData_o [31:0] $end
$upscope $end
$scope module Forwarding_Unit $end
$var wire 1 G EX_MEM_RegWrite_i $end
$var wire 5 &" EX_MEM_RegisterRd_i [4:0] $end
$var wire 5 '" MEM_WB_RegisterRd_i [4:0] $end
$var wire 1 ; MEM_WB_RegWrite_i $end
$var wire 5 (" ID_EX_RS2_i [4:0] $end
$var wire 5 )" ID_EX_RS1_i [4:0] $end
$var reg 2 *" ForwardA_o [1:0] $end
$var reg 2 +" ForwardB_o [1:0] $end
$upscope $end
$scope module Hazard_Detection $end
$var wire 5 ," IF_ID_RS1_i [4:0] $end
$var wire 5 -" IF_ID_RS2_i [4:0] $end
$var wire 1 h branch_i $end
$var wire 32 ." Registers_RS2data_i [31:0] $end
$var wire 32 /" Registers_RS1data_i [31:0] $end
$var wire 5 0" ID_EX_RegisterRd_i [4:0] $end
$var wire 1 _ ID_EX_MemRead_i $end
$var reg 1 d PCWrite_o $end
$var reg 1 T stall_o $end
$upscope $end
$scope module ID_EX $end
$var wire 2 1" ALUOp_i [1:0] $end
$var wire 1 i ALUSrc_i $end
$var wire 1 g MemRead_i $end
$var wire 1 e MemWrite_i $end
$var wire 1 f MemtoReg_i $end
$var wire 5 2" RDaddr_i [4:0] $end
$var wire 5 3" RS1addr_i [4:0] $end
$var wire 5 4" RS2addr_i [4:0] $end
$var wire 1 c RegWrite_i $end
$var wire 1 ' clk_i $end
$var wire 10 5" funct_i [9:0] $end
$var wire 32 6" pc_i [31:0] $end
$var wire 1 ( rst_i $end
$var wire 1 ) start_i $end
$var wire 1 D mem_stall_i $end
$var wire 32 7" imm_i [31:0] $end
$var wire 32 8" RS2data_i [31:0] $end
$var wire 32 9" RS1data_i [31:0] $end
$var reg 2 :" ALUOp_o [1:0] $end
$var reg 1 ` ALUSrc_o $end
$var reg 1 _ MemRead_o $end
$var reg 1 ] MemWrite_o $end
$var reg 1 ^ MemtoReg_o $end
$var reg 5 ;" RDaddr_o [4:0] $end
$var reg 5 <" RS1addr_o [4:0] $end
$var reg 32 =" RS1data_o [31:0] $end
$var reg 5 >" RS2addr_o [4:0] $end
$var reg 32 ?" RS2data_o [31:0] $end
$var reg 1 \ RegWrite_o $end
$var reg 10 @" funct_o [9:0] $end
$var reg 32 A" imm_o [31:0] $end
$var reg 32 B" pc_o [31:0] $end
$upscope $end
$scope module IF_ID $end
$var wire 1 ' clk_i $end
$var wire 1 3 flush_i $end
$var wire 1 ( rst_i $end
$var wire 1 T stall_i $end
$var wire 1 ) start_i $end
$var wire 32 C" pc_i [31:0] $end
$var wire 1 D mem_stall_i $end
$var wire 32 D" instr_i [31:0] $end
$var reg 32 E" instr_o [31:0] $end
$var reg 32 F" pc_o [31:0] $end
$upscope $end
$scope module Instruction_Memory $end
$var wire 32 G" instr_o [31:0] $end
$var wire 32 H" addr_i [31:0] $end
$upscope $end
$scope module MEM_WB $end
$var wire 32 I" ALU_rst_i [31:0] $end
$var wire 1 I MemtoReg_i $end
$var wire 5 J" RDaddr_i [4:0] $end
$var wire 1 G RegWrite_i $end
$var wire 1 ' clk_i $end
$var wire 1 ( rst_i $end
$var wire 1 ) start_i $end
$var wire 1 D mem_stall_i $end
$var wire 32 K" ReadData_i [31:0] $end
$var reg 32 L" ALU_rst_o [31:0] $end
$var reg 1 < MemtoReg_o $end
$var reg 5 M" RDaddr_o [4:0] $end
$var reg 32 N" ReadData_o [31:0] $end
$var reg 1 ; RegWrite_o $end
$upscope $end
$scope module MUX_ALUSrc $end
$var wire 32 O" data2_i [31:0] $end
$var wire 1 ` select_i $end
$var wire 32 P" data_o [31:0] $end
$var wire 32 Q" data1_i [31:0] $end
$upscope $end
$scope module MUX_Forwarding_1 $end
$var wire 32 R" data1_i [31:0] $end
$var wire 32 S" data3_i [31:0] $end
$var wire 2 T" select_i [1:0] $end
$var wire 32 U" data2_i [31:0] $end
$var reg 32 V" data_o [31:0] $end
$upscope $end
$scope module MUX_Forwarding_2 $end
$var wire 32 W" data1_i [31:0] $end
$var wire 32 X" data3_i [31:0] $end
$var wire 2 Y" select_i [1:0] $end
$var wire 32 Z" data2_i [31:0] $end
$var reg 32 [" data_o [31:0] $end
$upscope $end
$scope module MUX_MemtoReg $end
$var wire 32 \" data1_i [31:0] $end
$var wire 32 ]" data2_i [31:0] $end
$var wire 1 < select_i $end
$var wire 32 ^" data_o [31:0] $end
$upscope $end
$scope module MUX_PCSrc $end
$var wire 32 _" data1_i [31:0] $end
$var wire 32 `" data2_i [31:0] $end
$var wire 1 3 select_i $end
$var wire 32 a" data_o [31:0] $end
$upscope $end
$scope module PC $end
$var wire 1 d PCWrite_i $end
$var wire 1 ' clk_i $end
$var wire 32 b" pc_i [31:0] $end
$var wire 1 ( rst_i $end
$var wire 1 ) start_i $end
$var wire 1 D stall_i $end
$var reg 32 c" pc_o [31:0] $end
$upscope $end
$scope module Registers $end
$var wire 5 d" RDaddr_i [4:0] $end
$var wire 32 e" RDdata_i [31:0] $end
$var wire 5 f" RS1addr_i [4:0] $end
$var wire 5 g" RS2addr_i [4:0] $end
$var wire 1 ; RegWrite_i $end
$var wire 1 ' clk_i $end
$var wire 32 h" RS2data_o [31:0] $end
$var wire 32 i" RS1data_o [31:0] $end
$upscope $end
$scope module Sign_Extend $end
$var wire 32 j" instruction_i [31:0] $end
$var reg 32 k" data_o [31:0] $end
$upscope $end
$scope module dcache $end
$var wire 1 l" cache_dirty $end
$var wire 1 m" cache_sram_enable $end
$var wire 4 n" cache_sram_index [3:0] $end
$var wire 1 o" cache_sram_write $end
$var wire 1 ' clk_i $end
$var wire 1 J cpu_MemRead_i $end
$var wire 1 H cpu_MemWrite_i $end
$var wire 32 p" cpu_addr_i [31:0] $end
$var wire 32 q" cpu_data_i [31:0] $end
$var wire 32 r" cpu_data_o [31:0] $end
$var wire 1 s" cpu_req $end
$var wire 1 D cpu_stall_o $end
$var wire 256 t" mem_data_o [255:0] $end
$var wire 1 $ mem_enable_o $end
$var wire 1 # mem_write_o $end
$var wire 1 ( rst_i $end
$var wire 1 u" write_hit $end
$var wire 1 v" sram_valid $end
$var wire 22 w" sram_tag [21:0] $end
$var wire 1 x" sram_dirty $end
$var wire 25 y" sram_cache_tag [24:0] $end
$var wire 256 z" sram_cache_data [255:0] $end
$var wire 256 {" r_hit_data [255:0] $end
$var wire 256 |" mem_data_i [255:0] $end
$var wire 32 }" mem_addr_o [31:0] $end
$var wire 1 " mem_ack_i $end
$var wire 1 ~" hit $end
$var wire 23 !# cpu_tag [22:0] $end
$var wire 5 "# cpu_offset [4:0] $end
$var wire 4 ## cpu_index [3:0] $end
$var wire 25 $# cache_sram_tag [24:0] $end
$var wire 256 %# cache_sram_data [255:0] $end
$var reg 1 &# cache_write $end
$var reg 32 '# cpu_data [31:0] $end
$var reg 1 (# mem_enable $end
$var reg 1 )# mem_write $end
$var reg 3 *# state [2:0] $end
$var reg 256 +# w_hit_data [255:0] $end
$var reg 1 ,# write_back $end
$scope module dcache_sram $end
$var wire 4 -# addr_i [3:0] $end
$var wire 1 ' clk_i $end
$var wire 256 .# data_i [255:0] $end
$var wire 1 m" enable_i $end
$var wire 1 /# hit_0 $end
$var wire 1 0# hit_1 $end
$var wire 1 ~" hit_o $end
$var wire 1 ( rst_i $end
$var wire 25 1# tag_i [24:0] $end
$var wire 1 o" write_i $end
$var wire 25 2# tag_o [24:0] $end
$var wire 256 3# data_o [255:0] $end
$var integer 32 4# i [31:0] $end
$var integer 32 5# j [31:0] $end
$upscope $end
$upscope $end
$upscope $end
$scope module Data_Memory $end
$var wire 1 " ack_o $end
$var wire 32 6# addr_i [31:0] $end
$var wire 1 ' clk_i $end
$var wire 256 7# data_i [255:0] $end
$var wire 256 8# data_o [255:0] $end
$var wire 1 $ enable_i $end
$var wire 1 ( rst_i $end
$var wire 1 # write_i $end
$var wire 27 9# addr [26:0] $end
$var reg 4 :# count [3:0] $end
$var reg 256 ;# data [255:0] $end
$var reg 2 <# state [1:0] $end
$upscope $end
$upscope $end
$enddefinitions $end
#0
$dumpvars
b0 <#
bx ;#
b0 :#
bx 9#
bx 8#
bx 7#
bx00000 6#
b10 5#
b10000 4#
bx 3#
bx 2#
b1xxxxxxxxxxxxxxxxxxxxxxxx 1#
x0#
x/#
bx .#
bx -#
0,#
bx +#
b0 *#
0)#
0(#
bx '#
0&#
bx %#
b1xxxxxxxxxxxxxxxxxxxxxxxx $#
bx ##
bx "#
bx !#
x~"
bx00000 }"
bx |"
bx {"
bx z"
bx y"
xx"
bx w"
xv"
xu"
bx t"
xs"
bx r"
bx q"
bx p"
xo"
bx n"
xm"
xl"
bx k"
bx j"
bx i"
bx h"
bx g"
bx f"
bx e"
bx d"
b0 c"
bx b"
bx a"
bx `"
b100 _"
bx ^"
bx ]"
bx \"
bx ["
bx Z"
bx Y"
bx X"
bx W"
bx V"
bx U"
bx T"
bx S"
bx R"
bx Q"
bx P"
bx O"
bx N"
bx M"
bx L"
bx K"
bx J"
bx I"
b0 H"
bx G"
bx F"
bx E"
bx D"
b0 C"
bx B"
bx A"
bx @"
bx ?"
bx >"
bx ="
bx <"
bx ;"
bx :"
bx 9"
bx 8"
bx 7"
bz 6"
bx 5"
bx 4"
bx 3"
bx 2"
bx 1"
bx 0"
bx /"
bx ."
bx -"
bx ,"
bx +"
bx *"
bx )"
bx ("
bx '"
bx &"
bx %"
bx $"
bx #"
bx ""
bx !"
bx ~
bx }
bx |
b0 {
b100 z
b100 y
bx x
bx w
bx v
bx u
bx t
bx s
bx r
bx q
bx p
bx o
bx n
bx m
xl
bx k
bx j
xi
xh
xg
xf
xe
xd
xc
bx b
bx a
x`
x_
x^
x]
x\
bx [
bx Z
bx Y
bx X
bx W
bx V
bx U
xT
bx S
bx R
bx Q
bx P
bx O
bx N
bx M
bx L
bx K
xJ
xI
xH
xG
bx F
bx E
xD
bx C
bx B
bx A
bx @
b100 ?
b0 >
bx =
x<
x;
bx :
bx 9
bx 8
bx00000 7
bx 6
bx 5
x4
x3
bx 2
bx 1
bx 0
bx /
b0 .
bx -
bx ,
x+
bx *
0)
1(
0'
bx00000 &
bx %
0$
0#
0"
bx !
$end
#12
b0 b
b0 r
b0 ~
b0 m
b0 o
b0 P"
0l
b0 A
b0 !"
b0 Q"
b0 ["
b0 B
b0 p
b0 V"
0i
b0 j
b0 }
b0 1"
bx00000000000000000000000000000000 +#
b0 U
b0 +"
b0 Y"
b0 V
b0 *"
b0 T"
0T
1d
b0 P
b0 x
b0 7"
b0 k"
0~"
b0 9#
b0 w"
b100 @
b100 a"
b100 b"
0/#
00#
0x"
0v"
0c
03
b0 &
b0 7
b0 }"
b0 6#
b0 %
b0 5
b0 t"
b0 7#
b0 z"
b0 3#
b0 y"
b0 2#
0o"
0D
b0 M
b0 ."
b0 8"
b0 h"
b0 N
b0 /"
b0 9"
b0 i"
0h
0e
0g
0f
b0 8
b0 U"
b0 Z"
b0 ^"
b0 e"
b0 !#
b0 n"
b0 -#
b0 ##
b0 "#
b1000000000000000000000000 $#
b1000000000000000000000000 1#
0l"
0u"
0m"
0s"
b0 2"
b0 4"
b0 3"
b0 5"
b0 g"
b0 f"
14
b0 -"
b0 ,"
b0 |
b101 2
b11 1
b0 9
b0 '"
b0 M"
b0 d"
b0 =
b0 L"
b0 \"
b0 :
b0 N"
b0 ]"
0<
0;
b0 C
b0 %"
b0 q"
b0 K
b0 #"
b0 I"
b0 S"
b0 X"
b0 p"
0H
0J
0I
b0 E
b0 $"
b0 &"
b0 J"
0G
b0 Q
b0 ("
b0 >"
b0 R
b0 )"
b0 <"
b0 [
b0 ""
b0 0"
b0 ;"
b0 Y
b0 s
b0 @"
b0 Z
b0 A"
b0 O"
b0 W
b0 ?"
b0 W"
b0 X
b0 ="
b0 R"
0^
0_
0]
0\
0`
b0 O
b0 E"
b0 j"
b10 0
b1000000000000111010010011 L
b1000000000000111010010011 D"
b1000000000000111010010011 G"
b1000000000 /
1)
0(
#25
1i
b11 j
b11 }
b11 1"
b10000 P
b10000 x
b10000 7"
b10000 k"
b100 n
b100 q
b100 u
1c
b11101 2"
b10000 4"
b10000 g"
04
b10000 -"
b10011 |
b11110111101000111100110011 L
b11110111101000111100110011 D"
b11110111101000111100110011 G"
b1000 @
b1000 a"
b1000 b"
b1000000000000111010010011 O
b1000000000000111010010011 E"
b1000000000000111010010011 j"
b10000 k
b10000 v
b10000 `"
b0 S
b0 w
b0 F"
b0 a
b0 t
b0 :"
bx :
bx N"
bx ]"
b1000 ?
b1000 z
b1000 _"
b100 >
b100 {
b100 C"
b100 H"
b100 c"
b1 .
0+
1'
#50
0'
#75
b10000 b
b10000 r
b10000 ~
0i
b10 j
b10 }
b10 1"
b111101 P
b111101 x
b111101 7"
b111101 k"
b10000 m
b10000 o
b10000 P"
b11110 2"
b11101 4"
b11101 3"
b1000 5"
b11101 g"
b11101 f"
b11101 -"
b11101 ,"
b110011 |
b11110111110000111010110011 L
b11110111110000111010110011 D"
b11110111110000111010110011 G"
b1100 @
b1100 a"
b1100 b"
b10000 Q
b10000 ("
b10000 >"
b11101 [
b11101 ""
b11101 0"
b11101 ;"
b10000 Z
b10000 A"
b10000 O"
1\
1`
b11 a
b11 t
b11 :"
b11110111101000111100110011 O
b11110111101000111100110011 E"
b11110111101000111100110011 j"
b1000001 k
b1000001 v
b1000001 `"
b100 S
b100 w
b100 F"
b1100 ?
b1100 z
b1100 _"
b1000 >
b1000 {
b1000 C"
b1000 H"
b1000 c"
b10 .
1'
#100
0'
#125
b10000 A
b10000 !"
b10000 Q"
b10000 ["
b10000 B
b10000 p
b10000 V"
b100000000 b
b100000000 r
b100000000 ~
bx00000000000000000000000000000000xxxxxxxxxxxxxxxxxxxxxxxxxxxxxxxxxxxxxxxxxxxxxxxxxxxxxxxxxxxxxxxxxxxxxxxxxxxxxxxxxxxxxxxxxxxxxxxxxxxxxxxxxxxxxxxxxxxxxxxxxxxxxxxx +#
b110 n
b110 q
b110 u
b10 U
b10 +"
b10 Y"
b10 V
b10 *"
b10 T"
b11101 2"
b11110 3"
b11110 f"
b11110 ,"
b10000 m
b10000 o
b10000 P"
b10000 "#
b1110111011000000000010000010011 L
b1110111011000000000010000010011 D"
b1110111011000000000010000010011 G"
b10000 @
b10000 a"
b10000 b"
b11110111110000111010110011 O
b11110111110000111010110011 E"
b11110111110000111010110011 j"
b1000101 k
b1000101 v
b1000101 `"
b1000 S
b1000 w
b1000 F"
b11101 Q
b11101 ("
b11101 >"
b11101 R
b11101 )"
b11101 <"
b11110 [
b11110 ""
b11110 0"
b11110 ;"
b1000 Y
b1000 s
b1000 @"
b111101 Z
b111101 A"
b111101 O"
0`
b10 a
b10 t
b10 :"
b11101 E
b11101 $"
b11101 &"
b11101 J"
b10000 K
b10000 #"
b10000 I"
b10000 S"
b10000 X"
b10000 p"
1G
b10000 ?
b10000 z
b10000 _"
b1100 >
b1100 {
b1100 C"
b1100 H"
b1100 c"
b11 .
1'
#150
0'
#175
b1000000000000 b
b1000000000000 r
b1000000000000 ~
b10000 m
b10000 o
b10000 P"
1i
b11 j
b11 }
b11 1"
bx00000000000000000000000000010000 +#
b100000000 B
b100000000 p
b100000000 V"
b10000 A
b10000 !"
b10000 Q"
b10000 ["
b1 U
b1 +"
b1 Y"
b10 V
b10 *"
b10 T"
b11101110110 P
b11101110110 x
b11101110110 7"
b11101110110 k"
b1000 9#
1c
b100000000 &
b100000000 7
b100000000 }"
b100000000 6#
b10000 8
b10000 U"
b10000 Z"
b10000 ^"
b10000 e"
b1000 n"
b1000 -#
b1000 ##
b0 "#
b1000 2"
b10110 4"
b0 3"
b111011000 5"
b10110 g"
b0 f"
b10110 -"
b0 ,"
b10011 |
b11110101000000010000110011 L
b11110101000000010000110011 D"
b11110101000000010000110011 G"
b10100 @
b10100 a"
b10100 b"
b11101 9
b11101 '"
b11101 M"
b11101 d"
b10000 =
b10000 L"
b10000 \"
1;
b11110 E
b11110 $"
b11110 &"
b11110 J"
b10000 C
b10000 %"
b10000 q"
b100000000 K
b100000000 #"
b100000000 I"
b100000000 S"
b100000000 X"
b100000000 p"
b11110 R
b11110 )"
b11110 <"
b11101 [
b11101 ""
b11101 0"
b11101 ;"
b1110111011000000000010000010011 O
b1110111011000000000010000010011 E"
b1110111011000000000010000010011 j"
b11110000010 k
b11110000010 v
b11110000010 `"
b1100 S
b1100 w
b1100 F"
b10100 ?
b10100 z
b10100 _"
b10000 >
b10000 {
b10000 C"
b10000 H"
b10000 c"
b100 .
1'
#200
0'
#225
0i
b10 j
b10 }
b10 1"
b11101110110 b
b11101110110 r
b11101110110 ~
b111101 P
b111101 x
b111101 7"
b111101 k"
b100 n
b100 q
b100 u
b0 B
b0 p
b0 V"
b0 A
b0 !"
b0 Q"
b0 ["
b0 U
b0 +"
b0 Y"
b0 V
b0 *"
b0 T"
b10000000 9#
b10000 M
b10000 ."
b10000 8"
b10000 h"
b1000000000000 &
b1000000000000 7
b1000000000000 }"
b1000000000000 6#
b11101 4"
b1000 3"
b1000 5"
b11101 g"
b1000 f"
b11101 -"
b1000 ,"
b110011 |
b11101110110 m
b11101110110 o
b11101110110 P"
b1000000000000000000001000 $#
b1000000000000000000001000 1#
b1000 !#
b0 n"
b0 -#
b0 ##
b100000000 8
b100000000 U"
b100000000 Z"
b100000000 ^"
b100000000 e"
b1100101010101000000010000010011 L
b1100101010101000000010000010011 D"
b1100101010101000000010000010011 G"
b11000 @
b11000 a"
b11000 b"
b11110101000000010000110011 O
b11110101000000010000110011 E"
b11110101000000010000110011 j"
b1001101 k
b1001101 v
b1001101 `"
b10000 S
b10000 w
b10000 F"
b10110 Q
b10110 ("
b10110 >"
b0 R
b0 )"
b0 <"
b1000 [
b1000 ""
b1000 0"
b1000 ;"
b111011000 Y
b111011000 s
b111011000 @"
b11101110110 Z
b11101110110 A"
b11101110110 O"
1`
b11 a
b11 t
b11 :"
b11101 E
b11101 $"
b11101 &"
b11101 J"
b1000000000000 K
b1000000000000 #"
b1000000000000 I"
b1000000000000 S"
b1000000000000 X"
b1000000000000 p"
b11110 9
b11110 '"
b11110 M"
b11110 d"
b100000000 =
b100000000 L"
b100000000 \"
b11000 ?
b11000 z
b11000 _"
b10100 >
b10100 {
b10100 C"
b10100 H"
b10100 c"
b101 .
1'
#250
0'
#275
b11101110110 B
b11101110110 p
b11101110110 V"
b11101110110000000000000 b
b11101110110000000000000 r
b11101110110000000000000 ~
1i
b11 j
b11 }
b11 1"
bx00000000000000000000000000000000xxxxxxxxxxxxxxxxxxxxxxxxxxxxxxxxxxxxxxxxxxxxxxxxxxxxxxxxxxxxxxxxxxxxxxxxxxxxxxxxxxxxxxxxxxxxxxxxxxxxxxxxxxxxxxxxxxxxxxxxxxxxxxxxxxxxxxxxxxxxxxxxxxxxxxxxxxxxxxxxxxxxxxxxxxxxxxxx +#
b1 U
b1 +"
b1 Y"
b10 V
b10 *"
b10 T"
b1000000000000 A
b1000000000000 !"
b1000000000000 Q"
b1000000000000 ["
b110 n
b110 q
b110 u
b11001010101 P
b11001010101 x
b11001010101 7"
b11001010101 k"
b111011 9#
1c
b11101100000 &
b11101100000 7
b11101100000 }"
b11101100000 6#
b0 M
b0 ."
b0 8"
b0 h"
b1000000000000 8
b1000000000000 U"
b1000000000000 Z"
b1000000000000 ^"
b1000000000000 e"
b1000000000000000000000011 $#
b1000000000000000000000011 1#
b11 !#
b1011 n"
b1011 -#
b1011 ##
b10110 "#
b1000000000000 m
b1000000000000 o
b1000000000000 P"
b10101 4"
b110010000 5"
b10101 g"
b10101 -"
b10011 |
b11111001000000010000110011 L
b11111001000000010000110011 D"
b11111001000000010000110011 G"
b11100 @
b11100 a"
b11100 b"
b11101 9
b11101 '"
b11101 M"
b11101 d"
b1000000000000 =
b1000000000000 L"
b1000000000000 \"
b1000 E
b1000 $"
b1000 &"
b1000 J"
b0 C
b0 %"
b0 q"
b11101110110 K
b11101110110 #"
b11101110110 I"
b11101110110 S"
b11101110110 X"
b11101110110 p"
b11101 Q
b11101 ("
b11101 >"
b1000 R
b1000 )"
b1000 <"
b1000 Y
b1000 s
b1000 @"
b111101 Z
b111101 A"
b111101 O"
b10000 W
b10000 ?"
b10000 W"
0`
b10 a
b10 t
b10 :"
b1100101010101000000010000010011 O
b1100101010101000000010000010011 E"
b1100101010101000000010000010011 j"
b11001101001 k
b11001101001 v
b11001101001 `"
b10100 S
b10100 w
b10100 F"
b11100 ?
b11100 z
b11100 _"
b11000 >
b11000 {
b11000 C"
b11000 H"
b11000 c"
b110 .
1'
#300
0'
#325
0i
b10 j
b10 }
b10 1"
b11101110110011001010101 b
b11101110110011001010101 r
b11101110110011001010101 ~
b111110 P
b111110 x
b111110 7"
b111110 k"
b100 n
b100 q
b100 u
bx00000000000000000001000000000000 +#
b11101110110000000000000 B
b11101110110000000000000 p
b11101110110000000000000 V"
b0 A
b0 !"
b0 Q"
b0 ["
b0 U
b0 +"
b0 Y"
b10 V
b10 *"
b10 T"
b111011101100000000 9#
b11101110110 N
b11101110110 /"
b11101110110 9"
b11101110110 i"
b100000000 M
b100000000 ."
b100000000 8"
b100000000 h"
b11101110110000000000000 &
b11101110110000000000000 7
b11101110110000000000000 }"
b11101110110000000000000 6#
b11110 4"
b1000 5"
b11110 g"
b11110 -"
b110011 |
b11001010101 m
b11001010101 o
b11001010101 P"
b1000000000011101110110000 $#
b1000000000011101110110000 1#
b11101110110000 !#
b0 n"
b0 -#
b0 ##
b0 "#
b11101110110 8
b11101110110 U"
b11101110110 Z"
b11101110110 ^"
b11101110110 e"
b100010001000000010000010011 L
b100010001000000010000010011 D"
b100010001000000010000010011 G"
b100000 @
b100000 a"
b100000 b"
b11111001000000010000110011 O
b11111001000000010000110011 E"
b11111001000000010000110011 j"
b1010110 k
b1010110 v
b1010110 `"
b11000 S
b11000 w
b11000 F"
b10101 Q
b10101 ("
b10101 >"
b110010000 Y
b110010000 s
b110010000 @"
b11001010101 Z
b11001010101 A"
b11001010101 O"
b0 W
b0 ?"
b0 W"
1`
b11 a
b11 t
b11 :"
b1000000000000 C
b1000000000000 %"
b1000000000000 q"
b11101110110000000000000 K
b11101110110000000000000 #"
b11101110110000000000000 I"
b11101110110000000000000 S"
b11101110110000000000000 X"
b11101110110000000000000 p"
b1000 9
b1000 '"
b1000 M"
b1000 d"
b11101110110 =
b11101110110 L"
b11101110110 \"
b100000 ?
b100000 z
b100000 _"
b11100 >
b11100 {
b11100 C"
b11100 H"
b11100 c"
b111 .
1'
#350
0'
